Province_State,Country_Region,Last_Update,Lat,Long_,Confirmed,Deaths,Recovered,Active,FIPS,Incident_Rate,Total_Test_Results,People_Hospitalized,Case_Fatality_Ratio,UID,ISO3,Testing_Rate,Hospitalization_Rate
Alabama,US,2021-04-29 04:30:35,32.3182,-86.9023,527083,10879,,,1.0,10749.808542814517,4459306.0,,2.064001305297268,84000001.0,USA,90947.12926393762,
Alaska,US,2021-04-29 04:30:35,61.3707,-152.4044,67834,347,,,2.0,9272.703661428894,2077031.0,,0.5115428840994192,84000002.0,USA,283923.88711562514,
American Samoa,US,2021-04-29 04:30:35,-14.271,-170.132,0,0,,,60.0,0.0,2140.0,,,16.0,ASM,3846.084721698028,
Arizona,US,2021-04-29 04:30:35,33.7298,-111.4312,860772,17282,,,4.0,11825.875356879516,9106088.0,,2.0077325935323174,84000004.0,USA,125105.6745302778,
Arkansas,US,2021-04-29 04:30:35,34.9697,-92.3731,335289,5726,,,5.0,11110.363694925183,2958319.0,,1.7077804520876017,84000005.0,USA,98028.86469764107,
California,US,2021-04-29 07:31:03,36.1162,-119.6816,3804056,60405,,,6.0,9461.191287566888,59484125.0,,1.6474481766843831,84000006.0,USA,150546.13606528795,
Colorado,US,2021-04-29 04:30:35,39.0598,-105.3111,506405,6272,,,8.0,8793.68319714604,7729769.0,,1.2385343746605977,84000008.0,USA,134226.83380519613,
Connecticut,US,2021-04-29 04:30:35,41.5978,-72.7554,337961,8080,,,9.0,9479.208826666689,7968705.0,,2.390808406887185,84000009.0,USA,223508.09345783386,
Delaware,US,2021-04-29 04:30:35,39.3185,-75.5071,103844,1622,,,10.0,10664.185572684964,1709787.0,,1.5619583220985325,84000010.0,USA,175585.35743773644,
Diamond Princess,US,2021-04-29 04:30:35,,,49,0,,,88888.0,,,,0.0,84088888.0,USA,,
District of Columbia,US,2021-04-29 04:30:35,38.8974,-77.0268,47533,1104,,,11.0,6735.114041961094,1511528.0,,2.322596932657312,84000011.0,USA,214173.59429485555,
Florida,US,2021-04-29 04:30:35,27.7663,-81.6868,2222546,35030,,,12.0,10348.138633041275,27805634.0,,1.5761203592636552,84000012.0,USA,129462.58723626236,
Georgia,US,2021-04-29 04:30:35,33.0406,-83.6431,1097279,20098,,,13.0,10334.701744481688,8258721.0,,1.8316216750707888,84000013.0,USA,77784.60931621543,
Grand Princess,US,2021-04-29 04:30:35,,,103,3,,,99999.0,,,,2.9126213592233015,84099999.0,USA,,
Guam,US,2021-04-29 04:30:35,13.4443,144.7937,7951,136,,,66.0,4841.410469527306,142681.0,,1.710476669601308,316.0,GUM,86879.29659195391,
Hawaii,US,2021-04-29 04:30:35,21.0943,-157.4983,33537,482,,,15.0,2368.64631831126,1419743.0,,1.4372185943882876,84000015.0,USA,100273.40042037699,
Idaho,US,2021-04-29 04:30:35,44.2405,-114.4788,187269,2045,,,16.0,10479.137580334233,704593.0,,1.0920120254820609,84000016.0,USA,39427.38512589077,
Illinois,US,2021-04-29 04:30:35,40.3495,-88.9861,1328454,24211,,,17.0,10482.700158090931,22381515.0,,1.822638478291473,84000017.0,USA,176624.29890700005,
Indiana,US,2021-04-29 04:30:35,39.8494,-86.2583,717564,13312,,,18.0,10658.655043753031,9676561.0,,1.85516553227308,84000018.0,USA,143735.08942593815,
Iowa,US,2021-04-29 04:30:35,42.0115,-93.2105,364036,5931,,,19.0,11538.127521734858,1422284.0,,1.6292344713160236,84000019.0,USA,45079.31678219501,
Kansas,US,2021-04-29 04:30:35,38.5266,-96.7265,310011,4979,,,20.0,10641.180456346276,1366299.0,,1.5938144130369567,84000020.0,USA,46898.446236828575,
Kentucky,US,2021-04-29 04:30:35,37.6681,-84.6701,442618,6485,,,21.0,9907.126148220783,4610084.0,,1.4651460175591593,84000021.0,USA,103187.58781137293,
Louisiana,US,2021-04-29 04:30:35,31.1695,-91.8678,457326,10367,,,22.0,9837.519150127968,6438010.0,,2.2668730839707343,84000022.0,USA,138487.74542386693,
Maine,US,2021-04-29 04:30:35,44.6939,-69.3819,60691,778,,,23.0,4514.987219277911,2040764.0,,1.2819034123675668,84000023.0,USA,151818.61194513962,
Maryland,US,2021-04-29 04:30:35,39.0639,-76.8021,445493,8709,,,24.0,7368.782337139908,9586291.0,,1.9549128718071889,84000024.0,USA,158564.31369176006,
Massachusetts,US,2021-04-29 04:30:35,42.2302,-71.5301,686243,17578,,,25.0,9956.36853549429,21068225.0,,2.5614833229628573,84000025.0,USA,305668.7099011781,
Michigan,US,2021-04-29 04:30:35,43.3266,-84.5361,928407,18600,,,26.0,9296.2881114649,12733533.0,,2.003431684595226,84000026.0,USA,127502.9070707631,
Minnesota,US,2021-04-29 04:30:35,45.6945,-93.9002,572025,7191,,,27.0,10142.949043483688,8440957.0,,1.2571128884227087,84000027.0,USA,149672.12399674306,
Mississippi,US,2021-04-29 04:30:35,32.7416,-89.6787,311493,7193,,,28.0,10466.310658505336,1887422.0,,2.3092011698497243,84000028.0,USA,63418.26299691312,
Missouri,US,2021-04-29 04:30:35,38.4561,-92.2884,590175,9129,,,29.0,9615.998753875401,5242074.0,,1.5468293302833904,84000029.0,USA,85411.57631502968,
Montana,US,2021-04-29 04:30:35,46.9219,-110.4544,108489,1567,,,30.0,10150.751606039796,1297681.0,,1.4443860667901816,84000030.0,USA,121417.26345415045,
Nebraska,US,2021-04-29 04:30:35,41.1254,-98.2681,219341,2242,,,31.0,11338.92126169867,2817870.0,,1.0221527211054933,84000031.0,USA,145670.92361073775,
Nevada,US,2021-04-29 04:30:35,38.3135,-117.0554,314475,5448,,,32.0,10209.710157537476,3159473.0,,1.7324111614595754,84000032.0,USA,102575.09684574418,
New Hampshire,US,2021-04-29 04:30:35,43.4525,-71.5639,94405,1296,,,33.0,6943.019509292783,1834328.0,,1.3728086436099782,84000033.0,USA,134905.72629036615,
New Jersey,US,2021-04-29 04:30:35,40.2989,-74.521,993123,25509,,,34.0,11181.060076400076,13374250.0,,2.568564014729293,84000034.0,USA,150573.78867148756,
New Mexico,US,2021-04-29 04:30:35,34.8405,-106.2485,197218,4051,,,35.0,9405.5356922286,3241498.0,,2.054072143516312,84000035.0,USA,154590.4792427041,
New York,US,2021-04-29 04:30:35,42.1657,-74.9481,2040448,51937,,,36.0,10488.81487559013,50591724.0,,2.5553211843673544,84000036.0,USA,260064.07772849407,
North Carolina,US,2021-04-29 04:30:35,35.6301,-79.8064,965536,12619,,,37.0,9206.028479558325,11266769.0,,1.3069424651178203,84000037.0,USA,107424.47333564454,
North Dakota,US,2021-04-29 04:30:35,47.5289,-99.784,107154,1517,,,38.0,14061.060648608645,1514065.0,,1.4157194318457549,84000038.0,USA,198680.02865908548,
Northern Mariana Islands,US,2021-04-29 04:30:35,15.0979,145.6739,164,2,,,69.0,297.4031626287538,17542.0,,1.2195121951219512,580.0,MNP,31811.25779776585,
Ohio,US,2021-04-29 04:30:35,40.3888,-82.7649,1068985,19802,,,39.0,9145.143766414865,12296759.0,,1.794973736768991,84000039.0,USA,105198.50972273314,
Oklahoma,US,2021-04-29 04:30:35,35.5653,-96.9289,447642,6788,,,40.0,11312.744015561399,3987382.0,,1.516390329772452,84000040.0,USA,100768.54240276213,
Oregon,US,2021-04-29 04:30:35,44.572,-122.0709,182916,2490,,,41.0,4336.828019385751,4633569.0,,1.3612805878107983,84000041.0,USA,109859.12587721804,
Pennsylvania,US,2021-04-29 04:30:35,40.5908,-77.2098,1148513,26128,,,42.0,8942.180781439509,12887702.0,,2.280968258446842,84000042.0,USA,100669.52877400538,
Puerto Rico,US,2021-04-29 04:30:35,18.2208,-66.5901,130671,2296,,,72.0,4091.531624507545,2058051.0,,1.7570845864805504,630.0,PRI,64441.08295910629,
Rhode Island,US,2021-04-29 04:30:35,41.6809,-71.5118,147601,2668,,,44.0,13933.021887722882,3960075.0,,1.8075758294320496,84000044.0,USA,373817.3295033515,
South Carolina,US,2021-04-29 04:30:35,33.8569,-80.945,576639,9472,,,45.0,11199.670441978327,6085747.0,,1.6426221604851563,84000045.0,USA,118199.3600732144,
South Dakota,US,2021-04-29 04:30:35,44.2998,-99.4388,122398,1962,,,46.0,13835.613496273703,774954.0,,1.6029673687478554,84000046.0,USA,87599.17663189997,
Tennessee,US,2021-04-29 04:30:35,35.7478,-86.6923,845380,12171,,,47.0,12378.949489352593,7608821.0,,1.4397075871205849,84000047.0,USA,111416.41727096133,
Texas,US,2021-04-29 04:30:35,31.0545,-97.5635,2886638,50098,,,48.0,9955.338139234327,22855470.0,,1.7355137706910253,84000048.0,USA,78823.16112416105,
Utah,US,2021-04-29 04:30:35,40.15,-111.8624,396522,2190,,,49.0,12368.284300667692,3266044.0,,0.552302268222192,84000049.0,USA,101874.19797764038,
Vermont,US,2021-04-29 04:30:35,44.0459,-72.7107,22723,246,,,50.0,3641.570604610017,1548462.0,,1.0826035294635392,84000050.0,USA,248155.33607162946,
Virgin Islands,US,2021-04-29 04:30:35,18.3358,-64.8963,3093,27,,,78.0,2883.432151247343,100603.0,,0.8729388942774006,850.0,VIR,93786.59059551776,
Virginia,US,2021-04-29 04:30:35,37.7693,-78.17,657154,10735,,,51.0,7686.1758494123205,6977981.0,,1.6346190487078065,84000051.0,USA,81752.27540352262,
Washington,US,2021-04-29 04:30:35,47.4009,-121.4905,400149,5474,,,53.0,5254.821046073793,6467669.0,,1.3679904235672211,84000053.0,USA,84934.46986057454,
West Virginia,US,2021-04-29 04:30:35,38.4912,-80.9545,152301,2673,,,54.0,8498.2426106787,2714356.0,,1.7550771170248392,84000054.0,USA,151458.33461206028,
Wisconsin,US,2021-04-29 04:30:35,44.2685,-89.6165,658696,7534,,,55.0,11313.069413925516,8196491.0,,1.1437749735841725,84000055.0,USA,140774.3050414998,
Wyoming,US,2021-04-29 04:30:35,42.756,-107.3025,57999,707,,,56.0,10021.269647642628,720669.0,,1.2189865342505906,84000056.0,USA,124519.70509313894,
