Province_State,Country_Region,Last_Update,Lat,Long_,Confirmed,Deaths,Recovered,Active,FIPS,Incident_Rate,Total_Test_Results,People_Hospitalized,Case_Fatality_Ratio,UID,ISO3,Testing_Rate,Hospitalization_Rate
Alabama,US,2021-05-05 04:30:45,32.3182,-86.9023,528784,10913,,,1.0,10784.500278900348,4494849.0,,2.0637916427123364,84000001.0,USA,91672.02542836952,
Alaska,US,2021-05-05 04:30:45,61.3707,-152.4044,68518,348,,,2.0,9366.204403010068,2117295.0,,0.507895735427187,84000002.0,USA,289427.8547457778,
American Samoa,US,2021-05-05 04:30:45,-14.271,-170.132,0,0,,,60.0,0.0,2140.0,,,16.0,ASM,3846.084721698028,
Arizona,US,2021-05-05 04:30:45,33.7298,-111.4312,865280,17355,,,4.0,11887.809348817933,9230470.0,,2.0057091346153846,84000004.0,USA,126814.51964680039,
Arkansas,US,2021-05-05 04:30:45,34.9697,-92.3731,336462,5752,,,5.0,11149.233018446526,2978739.0,,1.7095541249829105,84000005.0,USA,98705.51566635873,
California,US,2021-05-05 07:30:56,36.1162,-119.6816,3815447,60907,,,6.0,9489.671082287625,60709771.0,,1.6542919473647715,84000006.0,USA,153648.07745694288,
Colorado,US,2021-05-05 04:30:45,39.0598,-105.3111,516240,6321,,,8.0,8964.467202524998,7880920.0,,1.2244304974430498,84000008.0,USA,136851.55909213412,
Connecticut,US,2021-05-05 04:30:45,41.5978,-72.7554,340962,8117,,,9.0,9563.381573489034,8123744.0,,2.3806171948780217,84000009.0,USA,227856.66343270548,
Delaware,US,2021-05-05 04:30:45,39.3185,-75.5071,105204,1626,,,10.0,10803.849803443134,1739412.0,,1.545568609558572,84000010.0,USA,178627.67569965622,
Diamond Princess,US,2021-05-05 04:30:45,,,49,0,,,88888.0,,,,0.0,84088888.0,USA,,
District of Columbia,US,2021-05-05 04:30:45,38.8974,-77.0268,47986,1106,,,11.0,6799.301167978984,1530198.0,,2.3048389113491434,84000011.0,USA,216819.0107247761,
Florida,US,2021-05-05 04:30:45,27.7663,-81.6868,2249535,35399,,,12.0,10473.798985433148,28218656.0,,1.573614102470066,84000012.0,USA,131385.61106321396,
Georgia,US,2021-05-05 04:30:45,33.0406,-83.6431,1104837,20241,,,13.0,10405.886626161546,8384277.0,,1.832034951762115,84000013.0,USA,78967.15615455841,
Grand Princess,US,2021-05-05 04:30:45,,,103,3,,,99999.0,,,,2.9126213592233015,84099999.0,USA,,
Guam,US,2021-05-05 04:30:45,13.4443,144.7937,8004,137,,,66.0,4873.682479951774,144851.0,,1.7116441779110445,316.0,GUM,88200.62230178592,
Hawaii,US,2021-05-05 04:30:45,21.0943,-157.4983,34234,484,,,15.0,2417.873932106857,1456785.0,,1.4137991470467957,84000015.0,USA,102889.59736473352,
Idaho,US,2021-05-05 04:30:45,44.2405,-114.4788,188233,2052,,,16.0,10533.080777699748,710564.0,,1.0901382860603614,84000016.0,USA,39761.50839504998,
Illinois,US,2021-05-05 04:30:45,40.3495,-88.9861,1343988,24410,,,17.0,10605.22398477693,22872035.0,,1.816389173100177,84000017.0,USA,180495.2500512752,
Indiana,US,2021-05-05 04:30:45,39.8494,-86.2583,724214,13363,,,18.0,10757.433767380413,9857803.0,,1.84517283565355,84000018.0,USA,146427.24783611463,
Iowa,US,2021-05-05 04:30:45,42.0115,-93.2105,366131,5960,,,19.0,11604.528584151858,1432329.0,,1.6278326609874607,84000019.0,USA,45397.693236600135,
Kansas,US,2021-05-05 04:30:45,38.5266,-96.7265,311108,4986,,,20.0,10678.835168471369,1378541.0,,1.6026588837316944,84000020.0,USA,47318.6549750559,
Kentucky,US,2021-05-05 04:30:45,37.6681,-84.6701,446221,6532,,,21.0,9987.77215789965,4655935.0,,1.4638486310594974,84000021.0,USA,104213.87151655908,
Louisiana,US,2021-05-05 04:30:45,31.1695,-91.8678,460337,10405,,,22.0,9902.288636579724,6518041.0,,2.2603006058604893,84000022.0,USA,140209.28868863624,
Maine,US,2021-05-05 04:30:45,44.6939,-69.3819,62510,790,,,23.0,4650.308135919036,2093887.0,,1.2637977923532235,84000023.0,USA,155770.59273388426,
Maryland,US,2021-05-05 04:30:45,39.0639,-76.8021,450010,8803,,,24.0,7443.496844027471,9769298.0,,1.9561787515832985,84000024.0,USA,161591.38426115838,
Massachusetts,US,2021-05-05 04:30:45,42.2302,-71.5301,692589,17644,,,25.0,10048.43958718625,21535803.0,,2.547542626290628,84000025.0,USA,312452.57347004424,
Michigan,US,2021-05-05 04:30:45,43.3266,-84.5361,948852,19055,,,26.0,9501.00717372843,12979954.0,,2.0082162444722678,84000026.0,USA,129970.3600442061,
Minnesota,US,2021-05-05 04:30:45,45.6945,-93.9002,581335,7267,,,27.0,10308.030736757293,8613847.0,,1.2500537555798292,84000027.0,USA,152737.74955529012,
Mississippi,US,2021-05-05 04:30:45,32.7416,-89.6787,312608,7221,,,28.0,10503.775180610915,1900140.0,,2.3099216910635683,84000028.0,USA,63845.59375219452,
Missouri,US,2021-05-05 04:30:45,38.4561,-92.2884,594380,9209,,,29.0,9684.512795913859,5313768.0,,1.5493455365254551,84000029.0,USA,86579.72036494767,
Montana,US,2021-05-05 04:30:45,46.9219,-110.4544,109315,1577,,,30.0,10228.036130983237,1315652.0,,1.4426199515162603,84000030.0,USA,123098.71647807123,
Nebraska,US,2021-05-05 04:30:45,41.1254,-98.2681,220481,2244,,,31.0,11397.854020454837,2856247.0,,1.0177747742435856,84000031.0,USA,147654.83806932147,
Nevada,US,2021-05-05 04:30:45,38.3135,-117.0554,316715,5480,,,32.0,10282.433746862172,3202314.0,,1.7302622231343636,84000032.0,USA,103965.96795746707,
New Hampshire,US,2021-05-05 04:30:45,43.4525,-71.5639,95714,1307,,,33.0,7039.289966764996,1874516.0,,1.3655264642581022,84000033.0,USA,137861.35436133118,
New Jersey,US,2021-05-05 04:30:45,40.2989,-74.521,1001997,25658,,,34.0,11280.967869410584,13658719.0,,2.5606863094400483,84000034.0,USA,153776.47854864626,
New Mexico,US,2021-05-05 04:30:45,34.8405,-106.2485,198576,4083,,,35.0,9470.30015323138,3274367.0,,2.056139714769156,84000035.0,USA,156158.03673070145,
New York,US,2021-05-05 04:30:45,42.1657,-74.9481,2059485,52279,,,36.0,10586.673565831983,51748731.0,,2.5483555354858134,84000036.0,USA,266011.6109333401,
North Carolina,US,2021-05-05 04:30:45,35.6301,-79.8064,975300,12700,,,37.0,9299.124606553494,11435256.0,,1.302163436891213,84000037.0,USA,109030.93453484926,
North Dakota,US,2021-05-05 04:30:45,47.5289,-99.784,107912,1525,,,38.0,14160.527621112193,1525812.0,,1.4131885239825042,84000038.0,USA,200221.50428705272,
Northern Mariana Islands,US,2021-05-05 04:30:45,15.0979,145.6739,168,2,,,69.0,304.6568983026258,17542.0,,1.1904761904761905,580.0,MNP,31811.25779776585,
Ohio,US,2021-05-05 04:30:45,40.3888,-82.7649,1077284,19920,,,39.0,9216.141533565458,12501569.0,,1.7956267799391803,84000039.0,USA,106950.65488360953,
Oklahoma,US,2021-05-05 04:30:45,35.5653,-96.9289,449041,6788,,,40.0,11348.099341642888,4020761.0,,1.5116659725949302,84000040.0,USA,101612.091673151,
Oregon,US,2021-05-05 04:30:45,44.572,-122.0709,187611,2508,,,41.0,4448.1436372158805,4728338.0,,1.3368086093032925,84000041.0,USA,112106.04169961283,
Pennsylvania,US,2021-05-05 04:30:45,40.5908,-77.2098,1166279,26325,,,42.0,9080.284321444113,13144128.0,,2.262363253006348,84000042.0,USA,102672.54564896127,
Puerto Rico,US,2021-05-05 04:30:45,18.2208,-66.5901,133705,2337,,,72.0,4186.5313333087015,2099637.0,,1.7478777906585394,630.0,PRI,65743.21146609538,
Rhode Island,US,2021-05-05 04:30:45,41.6809,-71.5118,148929,2681,,,44.0,14058.380476532551,4046823.0,,1.8001866661294978,84000044.0,USA,382006.0394898434,
South Carolina,US,2021-05-05 04:30:45,33.8569,-80.945,581221,9524,,,45.0,11288.66353811845,6176684.0,,1.638619389182428,84000045.0,USA,119965.5681010831,
South Dakota,US,2021-05-05 04:30:45,44.2998,-99.4388,122974,1973,,,46.0,13900.7233295541,781212.0,,1.604404182998032,84000046.0,USA,88306.56784139425,
Tennessee,US,2021-05-05 04:30:45,35.7478,-86.6923,849978,12217,,,47.0,12446.278276113626,7688761.0,,1.4373313191635548,84000047.0,USA,112586.98343313555,
Texas,US,2021-05-05 04:30:45,31.0545,-97.5635,2903934,50411,,,48.0,10014.987990880498,23274930.0,,1.7359554314939665,84000048.0,USA,80269.78038708326,
Utah,US,2021-05-05 04:30:45,40.15,-111.8624,398499,2217,,,49.0,12429.95073547439,3303134.0,,0.5563376570581106,84000049.0,USA,103031.10645866227,
Vermont,US,2021-05-05 04:30:45,44.0459,-72.7107,23191,248,,,50.0,3716.5719267487093,1592996.0,,1.0693803630718812,84000050.0,USA,255292.32085822022,
Virgin Islands,US,2021-05-05 04:30:45,18.3358,-64.8963,3152,27,,,78.0,2938.43457508297,103134.0,,0.8565989847715736,850.0,VIR,96146.10135361897,
Virginia,US,2021-05-05 04:30:45,37.7693,-78.17,662696,10823,,,51.0,7763.980139930565,7076549.0,,1.633177203423591,84000051.0,USA,82907.07337187111,
Washington,US,2021-05-05 04:30:45,47.4009,-121.4905,408607,5528,,,53.0,5365.892862841277,6590447.0,,1.3528892064991545,84000053.0,USA,86546.81030974434,
West Virginia,US,2021-05-05 04:30:45,38.4912,-80.9545,154551,2695,,,54.0,8623.790347555196,2773103.0,,1.743760959165583,84000054.0,USA,154736.35812240848,
Wisconsin,US,2021-05-05 04:30:45,44.2685,-89.6165,662893,7582,,,55.0,11385.15266982846,8327134.0,,1.1437743346211229,84000055.0,USA,143018.09174651012,
Wyoming,US,2021-05-05 04:30:45,42.756,-107.3025,58367,710,,,56.0,10084.853972033265,729380.0,,1.2164407970257165,84000056.0,USA,126024.82207620096,
