Province_State,Country_Region,Last_Update,Lat,Long_,Confirmed,Deaths,Recovered,Active,FIPS,Incident_Rate,Total_Test_Results,People_Hospitalized,Case_Fatality_Ratio,UID,ISO3,Testing_Rate,Hospitalization_Rate
Alabama,US,2021-05-06 04:30:57,32.3182,-86.9023,529446,10930,,,1.0,10798.00170705368,4503182.0,,2.064422056262584,84000001.0,USA,91841.97618486758,
Alaska,US,2021-05-06 04:30:57,61.3707,-152.4044,68666,348,,,2.0,9386.435557621198,2121768.0,,0.5068010369032709,84000002.0,USA,290039.30038480205,
American Samoa,US,2021-05-06 04:30:57,-14.271,-170.132,0,0,,,60.0,0.0,2140.0,,,16.0,ASM,3846.084721698028,
Arizona,US,2021-05-06 04:30:57,33.7298,-111.4312,866022,17360,,,4.0,11898.003453081086,9241982.0,,2.004568013283728,84000004.0,USA,126972.6793884142,
Arkansas,US,2021-05-06 04:30:57,34.9697,-92.3731,336760,5754,,,5.0,11159.107748548282,2982672.0,,1.7086352298372731,84000005.0,USA,98835.84222169498,
California,US,2021-05-06 07:30:59,36.1162,-119.6816,3817025,60967,,,6.0,9492.36391989385,60858620.0,,1.6549157957940024,84000006.0,USA,154024.79379608686,
Colorado,US,2021-05-06 04:30:57,39.0598,-105.3111,517851,6337,,,8.0,8992.44209145896,7901466.0,,1.2237110674692142,84000008.0,USA,137208.33877434215,
Connecticut,US,2021-05-06 04:30:57,41.5978,-72.7554,341571,8124,,,9.0,9580.4629473027,8134242.0,,2.378422055736582,84000009.0,USA,228151.11378130288,
Delaware,US,2021-05-06 04:30:57,39.3185,-75.5071,105401,1628,,,10.0,10824.080578045605,1742442.0,,1.544577375926225,84000010.0,USA,178938.83939024238,
Diamond Princess,US,2021-05-06 04:30:57,,,49,0,,,88888.0,,,,0.0,84088888.0,USA,,
District of Columbia,US,2021-05-06 04:30:57,38.8974,-77.0268,48041,1109,,,11.0,6807.0943068994775,1530198.0,,2.308444870006869,84000011.0,USA,216819.0107247761,
Florida,US,2021-05-06 04:30:57,27.7663,-81.6868,2253929,35478,,,12.0,10494.257379164295,28301200.0,,1.574051356542287,84000012.0,USA,131769.9346071702,
Georgia,US,2021-05-06 04:30:57,33.0406,-83.6431,1105855,20273,,,13.0,10415.474640126891,8394079.0,,1.833242152000036,84000013.0,USA,79059.47610827976,
Grand Princess,US,2021-05-06 04:30:57,,,103,3,,,99999.0,,,,2.9126213592233015,84099999.0,USA,,
Guam,US,2021-05-06 04:30:57,13.4443,144.7937,8016,138,,,66.0,4880.98935023656,145286.0,,1.7215568862275448,316.0,GUM,88465.49634960937,
Hawaii,US,2021-05-06 04:30:57,21.0943,-157.4983,34296,485,,,15.0,2422.2528590155043,1461418.0,,1.4141590856076511,84000015.0,USA,103216.81620937484,
Idaho,US,2021-05-06 04:30:57,44.2405,-114.4788,188435,2052,,,16.0,10544.384227770115,711791.0,,1.0889696712394197,84000016.0,USA,39830.168460576424,
Illinois,US,2021-05-06 04:30:57,40.3495,-88.9861,1346398,24443,,,17.0,10624.31358523767,22929518.0,,1.815576686815807,84000017.0,USA,180948.878618156,
Indiana,US,2021-05-06 04:30:57,39.8494,-86.2583,725353,13373,,,18.0,10774.352408915993,9875046.0,,1.843654055335816,84000018.0,USA,146683.37438220592,
Iowa,US,2021-05-06 04:30:57,42.0115,-93.2105,366570,5962,,,19.0,11618.44269699246,1432871.0,,1.6264287857707942,84000019.0,USA,45414.87193628034,
Kansas,US,2021-05-06 04:30:57,38.5266,-96.7265,311602,5000,,,20.0,10695.791802737365,1378541.0,,1.6046110101989075,84000020.0,USA,47318.6549750559,
Kentucky,US,2021-05-06 04:30:57,37.6681,-84.6701,446929,6542,,,21.0,10003.61933382322,4663000.0,,1.463767175546899,84000021.0,USA,104372.0075305422,
Louisiana,US,2021-05-06 04:30:57,31.1695,-91.8678,460803,10418,,,22.0,9912.312741756248,6536789.0,,2.2608359754602287,84000022.0,USA,140612.57607887118,
Maine,US,2021-05-06 04:30:57,44.6939,-69.3819,62858,791,,,23.0,4676.196909416074,2097926.0,,1.2583919310191225,84000023.0,USA,156071.0661711099,
Maryland,US,2021-05-06 04:30:57,39.0639,-76.8021,450689,8813,,,24.0,7454.7280041285685,9779904.0,,1.9554504325599251,84000024.0,USA,161766.81531275224,
Massachusetts,US,2021-05-06 04:30:57,42.2302,-71.5301,693608,17658,,,25.0,10063.223766460456,21571842.0,,2.5458183873311726,84000025.0,USA,312975.445930165,
Michigan,US,2021-05-06 04:30:57,43.3266,-84.5361,951899,19100,,,26.0,9531.517273152105,13007324.0,,2.006515397116711,84000026.0,USA,130244.42024152346,
Minnesota,US,2021-05-06 04:30:57,45.6945,-93.9002,582576,7284,,,27.0,10330.035718642635,8623353.0,,1.2503089725632364,84000027.0,USA,152906.30665263266,
Mississippi,US,2021-05-06 04:30:57,32.7416,-89.6787,312712,7223,,,28.0,10507.269629309554,1900239.0,,2.3097930364041037,84000028.0,USA,63848.92019855188,
Missouri,US,2021-05-06 04:30:57,38.4561,-92.2884,594984,9215,,,29.0,9694.354051892748,5320659.0,,1.5487811436946204,84000029.0,USA,86691.99866784588,
Montana,US,2021-05-06 04:30:57,46.9219,-110.4544,109455,1578,,,30.0,10241.135203007547,1318308.0,,1.4416883650815404,84000030.0,USA,123347.22458733244,
Nebraska,US,2021-05-06 04:30:57,41.1254,-98.2681,220720,2245,,,31.0,11410.209221632666,2863418.0,,1.0171257702065966,84000031.0,USA,148025.54580005872,
Nevada,US,2021-05-06 04:30:57,38.3135,-117.0554,317088,5487,,,32.0,10294.543523120255,3208813.0,,1.7304344535270966,84000032.0,USA,104176.96376417296,
New Hampshire,US,2021-05-06 04:30:57,43.4525,-71.5639,95881,1308,,,33.0,7051.571988459313,1876537.0,,1.3641910284623648,84000033.0,USA,138009.98888734446,
New Jersey,US,2021-05-06 04:30:57,40.2989,-74.521,1004525,25707,,,34.0,11309.429318670283,13761583.0,,2.559119982081083,84000034.0,USA,154934.57131630825,
New Mexico,US,2021-05-06 04:30:57,34.8405,-106.2485,198781,4085,,,35.0,9480.076820761256,3303894.0,,2.055025379689205,84000035.0,USA,157566.21069243128,
New York,US,2021-05-06 04:30:57,42.1657,-74.9481,2061887,52334,,,36.0,10599.020919614666,51845478.0,,2.54805428231518,84000036.0,USA,266508.93376282114,
North Carolina,US,2021-05-06 04:30:57,35.6301,-79.8064,976768,12721,,,37.0,9313.121443344657,11446881.0,,1.3023563425501246,84000037.0,USA,109141.77460821252,
North Dakota,US,2021-05-06 04:30:57,47.5289,-99.784,108081,1528,,,38.0,14182.704294401245,1526714.0,,1.4137544989406094,84000038.0,USA,200339.8673598736,
Northern Mariana Islands,US,2021-05-06 04:30:57,15.0979,145.6739,168,2,,,69.0,304.6568983026258,17542.0,,1.1904761904761905,580.0,MNP,31811.25779776585,
Ohio,US,2021-05-06 04:30:57,40.3888,-82.7649,1078734,19939,,,39.0,9228.546252491638,12518788.0,,1.7932131554210768,84000039.0,USA,107097.96305960254,
Oklahoma,US,2021-05-06 04:30:57,35.5653,-96.9289,449266,6832,,,40.0,11348.099341642888,4027953.0,,1.521464632405504,84000040.0,USA,101793.84685912533,
Oregon,US,2021-05-06 04:30:57,44.572,-122.0709,188417,2509,,,41.0,4467.2534110116385,4743531.0,,1.3316208197774086,84000041.0,USA,112466.25856472322,
Pennsylvania,US,2021-05-06 04:30:57,40.5908,-77.2098,1168627,26374,,,42.0,9098.797069736584,13179931.0,,2.2620526481614864,84000042.0,USA,102952.21312875679,
Puerto Rico,US,2021-05-06 04:30:57,18.2208,-66.5901,133846,2348,,,72.0,4190.946283519961,2108568.0,,1.7542548899481494,630.0,PRI,66022.8562911788,
Rhode Island,US,2021-05-06 04:30:57,41.6809,-71.5118,149197,2682,,,44.0,14083.678745961008,4055354.0,,1.7976232766074385,84000044.0,USA,382811.3362678067,
South Carolina,US,2021-05-06 04:30:57,33.8569,-80.945,581835,9536,,,45.0,11300.588846069135,6184293.0,,1.6389526240257115,84000045.0,USA,120113.3525769736,
South Dakota,US,2021-05-06 04:30:57,44.2998,-99.4388,123073,1976,,,46.0,13911.914082149167,781219.0,,1.6055511769437651,84000046.0,USA,88307.35910672926,
Tennessee,US,2021-05-06 04:30:57,35.7478,-86.6923,850885,12228,,,47.0,12459.55953091838,7697283.0,,1.4370919689499757,84000047.0,USA,112711.7715846748,
Texas,US,2021-05-06 04:30:57,31.0545,-97.5635,2906362,50471,,,48.0,10023.361594013992,23289712.0,,1.7365696358540332,84000048.0,USA,80320.76004174522,
Utah,US,2021-05-06 04:30:57,40.15,-111.8624,398979,2219,,,49.0,12444.922859251434,3308042.0,,0.5561696229626121,84000049.0,USA,103184.19642428252,
Vermont,US,2021-05-06 04:30:57,44.0459,-72.7107,23247,248,,,50.0,3725.546443927698,1594026.0,,1.0668043188368392,84000050.0,USA,255457.38787061948,
Virgin Islands,US,2021-05-06 04:30:57,18.3358,-64.8963,3152,27,,,78.0,2938.43457508297,104098.0,,0.8565989847715736,850.0,VIR,97044.78502442481,
Virginia,US,2021-05-06 04:30:57,37.7693,-78.17,663538,10844,,,51.0,7773.844800767241,7086503.0,,1.634269627361206,84000051.0,USA,83023.69193952941,
Washington,US,2021-05-06 04:30:57,47.4009,-121.4905,409933,5539,,,53.0,5383.306108175125,6609469.0,,1.3511964150239186,84000053.0,USA,86796.61027410366,
West Virginia,US,2021-05-06 04:30:57,38.4912,-80.9545,154956,2707,,,54.0,8646.388940192965,2779547.0,,1.746947520586489,84000054.0,USA,155095.92684082277,
Wisconsin,US,2021-05-06 04:30:57,44.2685,-89.6165,663668,7596,,,55.0,11398.463254370938,8339107.0,,1.1445481777033095,84000055.0,USA,143223.72739648054,
Wyoming,US,2021-05-06 04:30:57,42.756,-107.3025,58438,710,,,56.0,10097.121599836892,729942.0,,1.2149628666278791,84000056.0,USA,126121.92639768885,
