Province_State,Country_Region,Last_Update,Lat,Long_,Confirmed,Deaths,Recovered,Active,FIPS,Incident_Rate,Total_Test_Results,People_Hospitalized,Case_Fatality_Ratio,UID,ISO3,Testing_Rate,Hospitalization_Rate
Alabama,US,2021-05-28 04:31:06,32.3182,-86.9023,543177,11140,,,1.0,11078.044169249173,4630058.0,,2.0508968531436347,84000001.0,USA,94429.60035160818,
Alaska,US,2021-05-28 04:31:06,61.3707,-152.4044,70162,369,,,2.0,9590.934255582364,2250450.0,,0.5259257147743793,84000002.0,USA,307629.74253121816,
American Samoa,US,2021-05-28 04:31:06,-14.271,-170.132,0,0,,,60.0,0.0,2140.0,,,16.0,ASM,3846.084721698028,
Arizona,US,2021-05-28 04:31:06,33.7298,-111.4312,879102,17594,,,4.0,12077.705452760425,9626146.0,,2.001360479216291,84000004.0,USA,132250.58756921033,
Arkansas,US,2021-05-28 04:31:06,34.9697,-92.3731,340916,5829,,,5.0,11296.823783121768,3044716.0,,1.7098053479449482,84000005.0,USA,100891.77428355187,
California,US,2021-05-28 07:30:43,36.1162,-119.6816,3853953,62065,,,6.0,9583.006757174862,64818153.0,,1.6682605040751795,84000006.0,USA,164045.82703433314,
Colorado,US,2021-05-28 04:31:06,39.0598,-105.3111,540924,6545,,,8.0,9393.102930920952,8463654.0,,1.209966649658732,84000008.0,USA,146970.6894012853,
Connecticut,US,2021-05-28 04:31:06,41.5978,-72.7554,347137,8230,,,9.0,9736.579411419052,8438972.0,,2.3708218945257924,84000009.0,USA,236698.25178169386,
Delaware,US,2021-05-28 04:31:06,39.3185,-75.5071,108607,1660,,,10.0,11153.318463200527,1831445.0,,1.5284466010478146,84000010.0,USA,188078.9390447788,
Diamond Princess,US,2021-05-28 04:31:06,,,49,0,,,88888.0,,,,0.0,84088888.0,USA,,
District of Columbia,US,2021-05-28 04:31:06,38.8974,-77.0268,48844,1132,,,11.0,6920.874135138697,1611208.0,,2.3175825075751373,84000011.0,USA,228297.59588748968,
Florida,US,2021-05-28 04:31:06,27.7663,-81.6868,2318480,36733,,,12.0,10794.805802864612,29681408.0,,1.5843569925123355,84000012.0,USA,138196.16098288193,
Georgia,US,2021-05-28 04:31:06,33.0406,-83.6431,1122166,20774,,,13.0,10569.099488642394,8712098.0,,1.8512412602057091,84000013.0,USA,82054.73211343281,
Grand Princess,US,2021-05-28 04:31:06,,,103,3,,,99999.0,,,,2.9126213592233015,84099999.0,USA,,
Guam,US,2021-05-28 04:31:06,13.4443,144.7937,8154,139,,,66.0,4965.01835851159,152808.0,,1.7046848172675988,316.0,GUM,93045.68620645562,
Hawaii,US,2021-05-28 04:31:06,21.0943,-157.4983,36032,498,,,15.0,2544.8628124576235,1580660.0,,1.3821047957371226,84000015.0,USA,111638.62270035711,
Idaho,US,2021-05-28 04:31:06,44.2405,-114.4788,191877,2090,,,16.0,10736.990540355277,771915.0,,1.089239460696175,84000016.0,USA,43194.567629045385,
Illinois,US,2021-05-28 04:31:06,40.3495,-88.9861,1379279,25101,,,17.0,10883.968452521543,24366520.0,,1.8199720562037185,84000017.0,USA,192289.0167088061,
Indiana,US,2021-05-28 04:31:06,39.8494,-86.2583,742353,13583,,,18.0,11026.869446760422,10366786.0,,1.829722517454634,84000018.0,USA,153987.65251100715,
Iowa,US,2021-05-28 04:31:06,42.0115,-93.2105,371143,6047,,,19.0,11763.384013666891,1463460.0,,1.6292911357616875,84000019.0,USA,46384.39083760424,
Kansas,US,2021-05-28 04:31:06,38.5266,-96.7265,315110,5068,,,20.0,10816.204501128268,1411832.0,,1.6083272508013076,84000020.0,USA,48461.37422879923,
Kentucky,US,2021-05-28 04:31:06,37.6681,-84.6701,457482,6748,,,21.0,10239.827310548466,5313486.0,,1.4750307115908383,84000021.0,USA,118931.84662351072,
Louisiana,US,2021-05-28 04:31:06,31.1695,-91.8678,470331,10570,,,22.0,10117.269123992159,6797800.0,,2.2473534595848457,84000022.0,USA,146227.17203644646,
Maine,US,2021-05-28 04:31:06,44.6939,-69.3819,67423,825,,,23.0,5015.801078996467,2245297.0,,1.2236180531865979,84000023.0,USA,167034.44099591437,
Maryland,US,2021-05-28 04:31:06,39.0639,-76.8021,459095,9581,,,24.0,7593.769435365418,10306108.0,,2.0869318986266463,84000024.0,USA,170470.61703563534,
Massachusetts,US,2021-05-28 04:31:06,42.2302,-71.5301,706272,17850,,,25.0,10246.95963135598,22780412.0,,2.527354900095148,84000025.0,USA,330510.00485600077,
Michigan,US,2021-05-28 04:31:06,43.3266,-84.5361,990638,20301,,,26.0,9919.417089881232,13654795.0,,2.0492854100084994,84000026.0,USA,136727.65115190894,
Minnesota,US,2021-05-28 04:31:06,45.6945,-93.9002,600408,7496,,,27.0,10646.22656230052,9056558.0,,1.2484843639658365,84000027.0,USA,160587.74756934494,
Mississippi,US,2021-05-28 04:31:06,32.7416,-89.6787,317276,7304,,,28.0,10660.622166430512,1935018.0,,2.3020965972843834,84000028.0,USA,65017.51088403168,
Missouri,US,2021-05-28 04:31:06,38.4561,-92.2884,604987,9490,,,29.0,9857.337633940473,5504999.0,,1.568628747394572,84000029.0,USA,89695.53695782664,
Montana,US,2021-05-28 04:31:06,46.9219,-110.4544,111623,1610,,,30.0,10443.983689784034,1375108.0,,1.4423550701916272,84000030.0,USA,128661.70523719613,
Nebraska,US,2021-05-28 04:31:06,41.1254,-98.2681,223243,2236,,,31.0,11540.636721932498,2963307.0,,1.0015991542847928,84000031.0,USA,153189.3478521594,
Nevada,US,2021-05-28 04:31:06,38.3135,-117.0554,323481,5578,,,32.0,10502.097945688465,3359409.0,,1.7243671189343424,84000032.0,USA,109066.19664718279,
New Hampshire,US,2021-05-28 04:31:06,43.4525,-71.5639,98613,1349,,,33.0,7252.49703797351,1980697.0,,1.367973796558263,84000033.0,USA,145670.44026267345,
New Jersey,US,2021-05-28 04:31:06,40.2989,-74.521,1015368,26173,,,34.0,11431.505068006874,14471475.0,,2.577686119712262,84000034.0,USA,162926.87951957795,
New Mexico,US,2021-05-28 04:31:06,34.8405,-106.2485,202698,4259,,,35.0,9666.882707173549,3472993.0,,2.1011554134722594,84000035.0,USA,165630.7214369889,
New York,US,2021-05-28 04:31:06,42.1657,-74.9481,2099246,53023,,,36.0,10791.062880466974,55270938.0,,2.535624695724084,84000036.0,USA,284117.3294699104,
North Carolina,US,2021-05-28 04:31:06,35.6301,-79.8064,1000416,13055,,,37.0,9538.596372797929,11939965.0,,1.3049571378306624,84000037.0,USA,113843.14809072847,
North Dakota,US,2021-05-28 04:31:06,47.5289,-99.784,109820,1541,,,38.0,14410.900950316376,1557522.0,,1.4032052449462755,84000038.0,USA,204382.58304442425,
Northern Mariana Islands,US,2021-05-28 04:31:06,15.0979,145.6739,181,2,,,69.0,328.23153924270997,17542.0,,1.1049723756906078,580.0,MNP,31811.25779776585,
Ohio,US,2021-05-28 04:31:06,40.3888,-82.7649,1100312,20259,,,39.0,9413.145580070322,13059390.0,,1.7952180835981066,84000039.0,USA,111722.80158438203,
Oklahoma,US,2021-05-28 04:31:06,35.5653,-96.9289,452633,7291,,,40.0,11438.875847207373,4063340.0,,1.6107972684271803,84000040.0,USA,102688.14201569837,
Oregon,US,2021-05-28 04:31:06,44.572,-122.0709,200210,2660,,,41.0,4746.858327107641,5084865.0,,1.3286049647869738,84000041.0,USA,120559.08180144946,
Pennsylvania,US,2021-05-28 04:31:06,40.5908,-77.2098,1204374,27143,,,42.0,9383.135698679322,13883693.0,,2.2585221123716734,84000042.0,USA,108449.49952698757,
Puerto Rico,US,2021-05-28 04:31:06,18.2208,-66.5901,138355,2495,,,72.0,4332.130755169405,2252733.0,,1.803332008239673,630.0,PRI,70536.90804441503,
Rhode Island,US,2021-05-28 04:31:06,41.6809,-71.5118,151691,2708,,,44.0,14319.103686090013,4275509.0,,1.7852080874936551,84000044.0,USA,403593.2038275904,
South Carolina,US,2021-05-28 04:31:06,33.8569,-80.945,592243,9711,,,45.0,11502.736411461192,6415158.0,,1.6396985696749475,84000045.0,USA,124597.28778875654,
South Dakota,US,2021-05-28 04:31:06,44.2998,-99.4388,124105,2004,,,46.0,14028.569200109872,804682.0,,1.614761693727086,84000046.0,USA,90959.56747176033,
Tennessee,US,2021-05-28 04:31:06,35.7478,-86.6923,862098,12428,,,47.0,12623.752155092256,7938758.0,,1.4415994469306277,84000047.0,USA,116247.70433437484,
Texas,US,2021-05-28 04:31:06,31.0545,-97.5635,2950587,51401,,,48.0,10175.883257349553,24322870.0,,1.7420601392197552,84000048.0,USA,83883.8799207377,
Utah,US,2021-05-28 04:31:06,40.15,-111.8624,405387,2294,,,49.0,12644.80071167495,3423829.0,,0.5658790242410339,84000049.0,USA,106795.81579047511,
Vermont,US,2021-05-28 04:31:06,44.0459,-72.7107,24182,255,,,50.0,3875.388828969741,1687769.0,,1.0545033495988752,84000050.0,USA,270480.56936901127,
Virgin Islands,US,2021-05-28 04:31:06,18.3358,-64.8963,3399,27,,,78.0,3168.698959615169,112538.0,,0.794351279788173,850.0,VIR,104912.9283663348,
Virginia,US,2021-05-28 04:31:06,37.7693,-78.17,674439,11152,,,51.0,7901.558182929474,7380543.0,,1.6535224089947351,84000051.0,USA,86468.59083788579,
Washington,US,2021-05-28 04:31:06,47.4009,-121.4905,433701,5754,,,53.0,5695.431308095859,7096072.0,,1.326720482544426,84000053.0,USA,93186.75915735128,
West Virginia,US,2021-05-28 04:31:06,38.4912,-80.9545,161046,2792,,,54.0,8986.20481467201,2931120.0,,1.733666157495374,84000054.0,USA,163553.54778374766,
Wisconsin,US,2021-05-28 04:31:06,44.2685,-89.6165,673738,7814,,,55.0,11571.414978684172,8695491.0,,1.1597980223766509,84000055.0,USA,149344.60399207615,
Wyoming,US,2021-05-28 04:31:06,42.756,-107.3025,60048,719,,,56.0,10375.303019045925,753866.0,,1.1973754329869437,84000056.0,USA,130255.59861704096,
