Province_State,Country_Region,Last_Update,Lat,Long_,Confirmed,Deaths,Recovered,Active,FIPS,Incident_Rate,People_Tested,People_Hospitalized,Mortality_Rate,UID,ISO3,Testing_Rate,Hospitalization_Rate
Alabama,US,2020-07-12 04:34:43,32.3182,-86.9023,52802,1114,25783,25050.0,1,1059.4542119051189,740116,6745,2.144493425991876,84000001,USA,15094.596675426279,12.984387933855661
Alaska,US,2020-07-12 04:34:43,61.3707,-152.4044,1421,17,598,770.0,2,189.32533200281597,143376,,1.227436823104693,84000002,USA,19599.067726524,
American Samoa,US,2020-07-12 04:34:43,-14.270999999999999,-170.132,0,0,,0.0,60,0.0,816,,,16,ASM,1466.5444546287808,
Arizona,US,2020-07-12 04:34:43,33.7298,-111.4312,119930,2151,14394,103385.0,4,1647.6804909436648,998781,5750,1.7935462353039273,84000004,USA,9397.123146840302,4.79446343700492
Arkansas,US,2020-07-12 04:34:43,34.9697,-92.3731,27864,319,20642,6903.0,5,923.3204011923902,369649,1780,1.1448463967843814,84000005,USA,12248.93995766458,6.388171116853288
California,US,2020-07-12 04:34:43,36.1162,-119.6816,327750,6975,,311734.0,6,806.7402332690823,5275695,,2.204472943678806,84000006,USA,13352.058171973771,
Colorado,US,2020-07-12 04:34:43,39.0598,-105.3111,36591,1725,4728,30120.0,8,635.0872830426677,385861,5864,4.716594208842589,84000008,USA,6700.44607010983,16.03368605255243
Connecticut,US,2020-07-12 04:34:43,41.5978,-72.7554,47287,4348,8351,34588.0,9,1326.316787400285,558209,10552,9.194916150316155,84000009,USA,15656.77601831213,22.314801108126968
Delaware,US,2020-07-12 04:34:43,39.3185,-75.5071,12743,576,7002,5224.0,10,1308.6333033466015,134115,,4.057129404378875,84000010,USA,13772.84434421482,
Diamond Princess,US,2020-07-12 04:34:43,,,49,0,,49.0,88888,,,,0.0,84088888,USA,,
District of Columbia,US,2020-07-12 04:34:43,38.8974,-77.0268,10801,568,1717,8516.0,11,1530.4307905501814,124050,,5.258772335894824,84000011,USA,17577.070601587817,
Florida,US,2020-07-12 04:34:43,27.7663,-81.6868,254511,4197,,250314.0,12,1184.9991458597337,4102916,18341,1.6490446385421456,84000012,USA,19103.111282161615,7.206368290565044
Georgia,US,2020-07-12 04:34:43,33.0406,-83.6431,114401,2996,,111405.0,13,1077.483679420138,1064873,13205,2.618858226763752,84000013,USA,10029.4864394119,11.542731269831558
Grand Princess,US,2020-07-12 04:34:43,,,103,3,,100.0,99999,,,,2.912621359223301,84099999,USA,,
Guam,US,2020-07-12 04:34:43,13.4443,144.7937,310,5,202,103.0,66,188.76081569028614,16979,,1.6129032258064515,316,GUM,10338.612547114091,
Hawaii,US,2020-07-12 04:34:43,21.0943,-157.4983,1200,19,847,334.0,15,84.75342403833115,92234,125,1.5833333333333333,84000015,USA,6514.2894272928625,10.416666666666666
Idaho,US,2020-07-12 04:34:43,44.2405,-114.4788,10506,102,3066,7338.0,16,587.8913190063037,122349,449,0.970873786407767,84000016,USA,6846.365409204478,4.2737483342851705
Illinois,US,2020-07-12 04:34:43,40.3495,-88.9861,154094,7369,,146725.0,17,1216.0367479938361,1945220,,4.782145962853843,84000017,USA,15350.753455245303,
Indiana,US,2020-07-12 04:34:43,39.8494,-86.2583,51079,2681,38441,9882.0,18,758.7245750621006,558146,7458,5.395563734607177,84000018,USA,8290.669094395176,14.600912312300554
Iowa,US,2020-07-12 04:34:43,42.0115,-93.2105,34658,748,26104,7806.0,19,1098.485928996821,368361,,2.1582318656587223,84000019,USA,11675.208473979976,
Kansas,US,2020-07-12 04:34:43,38.5266,-96.7265,18687,295,905,17487.0,20,641.434462608562,217779,1304,1.5786375555198802,84000020,USA,7475.301323509927,6.978113126772623
Kentucky,US,2020-07-12 04:34:43,37.6681,-84.6701,19121,622,5322,13177.0,21,427.9856650206942,437902,2779,3.2529679410072694,84000021,USA,9801.56784079766,14.533758694628942
Louisiana,US,2020-07-12 04:34:43,31.1695,-91.8678,76803,3403,46334,27066.0,22,1652.1059010143276,924447,,4.430816504563624,84000022,USA,19885.7381075608,
Maine,US,2020-07-12 04:34:43,44.6939,-69.3819,3520,112,2972,436.0,23,261.86345606199023,118427,368,3.1818181818181817,84000023,USA,8810.143042912874,10.454545454545455
Maryland,US,2020-07-12 04:34:43,39.0639,-76.8021,72467,3310,5190,63967.0,24,1198.6575538235566,629277,11353,4.5675962852056795,84000024,USA,10408.70505881886,15.666441276719059
Massachusetts,US,2020-07-12 04:34:43,42.2302,-71.5301,111398,8310,94347,8741.0,25,1616.2198260922048,946334,11600,7.459738954020718,84000025,USA,13729.903345707648,10.413113341352627
Michigan,US,2020-07-12 04:34:43,43.3266,-84.5361,76370,6313,53867,16190.0,26,764.705051849646,1274122,,8.26633494827812,84000026,USA,12757.98782339629,
Minnesota,US,2020-07-12 04:34:43,45.6945,-93.9002,41571,1537,36012,4022.0,27,737.1225640254542,742095,4366,3.69728897548772,84000027,USA,13158.571339406542,10.502513771619638
Mississippi,US,2020-07-12 04:34:43,32.7416,-89.6787,35419,1230,22167,12022.0,28,1190.0949851637133,334343,3495,3.47271238600751,84000028,USA,11234.081358157808,9.867585194387193
Missouri,US,2020-07-12 04:34:43,38.4561,-92.2884,28434,1102,,26515.0,29,449.7975373397456,474550,,3.9520394117220894,84000029,USA,7732.0662661948945,
Montana,US,2020-07-12 04:34:43,46.9219,-110.4544,1677,29,864,784.0,30,156.90816989122158,113359,127,1.72927847346452,84000030,USA,10606.4121828855,7.573047107930829
Nebraska,US,2020-07-12 04:34:43,41.1254,-98.2681,20998,285,15499,5214.0,31,1085.5000599666669,203854,1419,1.3572721211543957,84000031,USA,10538.314564455895,6.757786455852939
Nevada,US,2020-07-12 04:34:43,38.3135,-117.0554,26838,592,764,25482.0,32,871.3195045965205,341233,,2.205827557940234,84000032,USA,11078.432391086686,
New Hampshire,US,2020-07-12 04:34:43,43.4525,-71.5639,6024,391,4897,736.0,33,443.035321476402,132302,585,6.49070385126162,84000033,USA,9730.15589342147,9.711155378486056
New Jersey,US,2020-07-12 04:34:43,40.2989,-74.521,176332,15525,31092,128342.0,34,1969.773220343181,1661284,20632,8.87350750747318,84000034,USA,18703.54045567591,11.7924770946336
New Mexico,US,2020-07-12 04:34:43,34.8405,-106.2485,14773,543,6181,8049.0,35,704.5400459455683,403581,2161,3.6756244500101536,84000035,USA,19247.20613841186,14.628037636228255
New York,US,2020-07-12 04:34:43,42.1657,-74.9481,401029,32179,71477,297209.0,36,2061.4683347691457,4610777,89995,8.065002780347555,84000036,USA,23701.45496755067,22.441020474828505
North Carolina,US,2020-07-12 04:34:43,35.6301,-79.8064,83906,1513,55318,27075.0,37,800.0126619885958,1176058,,1.8032083522036564,84000037,USA,11213.277849414631,
North Dakota,US,2020-07-12 04:34:43,47.5289,-99.78399999999999,4243,87,3533,623.0,38,556.7788447659115,120851,263,2.0504360122554797,84000038,USA,15858.420968372651,6.198444496818289
Northern Mariana Islands,US,2020-07-12 04:34:43,15.0979,145.6739,33,2,19,12.0,69,59.84331930944436,10765,4,6.0606060606060606,580,MNP,19521.61613230814,12.121212121212121
Ohio,US,2020-07-12 04:34:43,40.3888,-82.7649,64214,2766,44101,17077.0,39,549.3493938797683,983035,8770,4.727940947456941,84000039,USA,8409.843358342387,13.657457875229701
Oklahoma,US,2020-07-12 04:34:43,35.5653,-96.9289,19779,421,15136,4222.0,40,499.85203328505565,419816,1992,2.1285201476313262,84000040,USA,10609.529359704684,10.07128772940998
Oregon,US,2020-07-12 04:34:43,44.571999999999996,-122.0709,11851,232,3009,8610.0,41,280.9800611085992,292183,1180,1.9576407054257026,84000041,USA,6927.482676136516,9.95696565690659
Pennsylvania,US,2020-07-12 04:34:43,40.5908,-77.2098,99291,6902,72910,19409.0,42,775.0045715552482,1129008,,6.951499758103532,84000042,USA,7126.416059254542,
Puerto Rico,US,2020-07-12 04:34:43,18.2208,-66.5901,9366,167,,9199.0,72,319.2873272316705,320460,,1.7830450565876574,630,PRI,10034.14854397447,
Rhode Island,US,2020-07-12 04:34:43,41.6809,-71.5118,17312,1000,1685,14651.0,44,1634.1926878561699,166655,2051,5.6377079482439925,84000044,USA,15731.653326864025,11.847273567467653
South Carolina,US,2020-07-12 04:34:43,33.8569,-80.945,54699,951,20956,32792.0,45,1062.381790870497,488090,3398,1.7386058246037406,84000045,USA,9479.842927767982,6.212179381707161
South Dakota,US,2020-07-12 04:34:43,44.2998,-99.4388,7454,109,6470,875.0,46,842.5845438750977,89606,738,1.4623021196672927,84000046,USA,10128.87451549128,9.900724443251946
Tennessee,US,2020-07-12 04:34:43,35.7478,-86.6923,61006,738,35435,24833.0,47,893.3144769777429,1007114,3193,1.2097170770088188,84000047,USA,14747.230045683416,5.233911418548995
Texas,US,2020-07-12 04:34:43,31.0545,-97.5635,255320,3342,127880,123397.0,48,877.4177270212966,2429624,,1.2334178409291905,84000048,USA,8379.203928999432,
Utah,US,2020-07-12 04:34:43,40.15,-111.8624,28855,212,16897,11746.0,49,900.04298247201,405352,1797,0.7347080228729856,84000049,USA,12643.708994316208,6.227690175012996
Vermont,US,2020-07-12 04:34:43,44.0459,-72.7107,1283,56,1066,161.0,50,205.61259894004542,75032,,4.36477007014809,84000050,USA,12024.570945962188,
Virgin Islands,US,2020-07-12 04:34:43,18.3358,-64.8963,167,6,92,69.0,78,155.68482678897715,3807,,3.592814371257485,850,VIR,3549.0547041056047,
Virginia,US,2020-07-12 04:34:43,37.7693,-78.17,69782,1962,9271,58549.0,51,817.5484115260009,786335,10291,2.811613310022642,84000051,USA,9212.503656778223,14.747356051703878
Washington,US,2020-07-12 04:34:43,47.4009,-121.4905,40672,1400,,37794.0,53,515.0170855979197,668466,4662,3.6309857718394616,84000053,USA,8778.403058322685,11.887398643480035
West Virginia,US,2020-07-12 04:34:43,38.4912,-80.9545,4146,96,2763,1287.0,54,231.3426298177549,203823,,2.3154848046309695,84000054,USA,11373.118388167935,
Wisconsin,US,2020-07-12 04:34:43,44.2685,-89.6165,35679,821,27909,6949.0,55,612.7849624401067,685584,3797,2.301073460579052,84000055,USA,11774.869410284427,10.642114409036127
Wyoming,US,2020-07-12 04:34:43,42.756,-107.3025,1839,21,1361,457.0,56,317.7488384629872,39916,123,1.1419249592169658,84000056,USA,6896.825794501684,6.688417618270799
