Province_State,Country_Region,Last_Update,Lat,Long_,Confirmed,Deaths,Recovered,Active,FIPS,Incident_Rate,People_Tested,People_Hospitalized,Mortality_Rate,UID,ISO3,Testing_Rate,Hospitalization_Rate
Alabama,US,2020-07-27 04:35:15,32.3182,-86.9023,79948,1473,32510,45311.0,1,1617.1937220398577,966640,9157,1.8576437057028274,84000001,USA,19714.532492655286,11.548162534365778
Alaska,US,2020-07-27 04:35:15,61.3707,-152.4044,2565,20,817,1688.0,2,345.1599013047728,207264,,0.7920792079207921,84000002,USA,28332.36506298314,
American Samoa,US,2020-07-27 04:35:15,-14.270999999999999,-170.132,0,0,,0.0,60,0.0,1037,,,16,ASM,1863.7335777574092,
Arizona,US,2020-07-27 04:35:15,33.7298,-111.4312,162014,3305,20978,137731.0,4,2225.8593100954467,1252779,7706,2.0399471650598096,84000004,USA,11912.854971556113,4.756379078351253
Arkansas,US,2020-07-27 04:35:15,34.9697,-92.3731,38623,401,31622,6600.0,5,1279.8379218796185,477267,2542,1.038241462341092,84000005,USA,15815.042991526288,6.581570566760738
California,US,2020-07-27 04:35:15,36.1162,-119.6816,463928,8383,,443840.0,6,1144.6786985384244,7168139,,1.8678364228102449,84000006,USA,18141.573558136683,
Colorado,US,2020-07-27 04:35:15,39.0598,-105.3111,44336,1794,5158,37366.0,8,769.5786019709881,490396,6261,4.04801660724762,84000008,USA,8515.688164902853,14.12744257412338
Connecticut,US,2020-07-27 04:35:15,41.5978,-72.7554,48776,4413,8516,35847.0,9,1368.0806061335315,713072,10712,9.04748236837789,84000009,USA,20000.4095041998,21.961620469083154
Delaware,US,2020-07-27 04:35:15,39.3185,-75.5071,14290,595,7996,5715.0,10,1467.5013658340213,169993,,4.051784464660602,84000010,USA,17457.309984760166,
Diamond Princess,US,2020-07-27 04:35:15,,,49,0,,49.0,88888,,,,0.0,84088888,USA,,
District of Columbia,US,2020-07-27 04:35:15,38.8974,-77.0268,11780,581,9607,1592.0,11,1669.1486633349816,171598,,4.932088285229202,84000011,USA,24314.31004507268,
Florida,US,2020-07-27 04:35:15,27.7663,-81.6868,423855,5854,,418001.0,12,1973.46210171025,5500184,24421,1.3811326986823325,84000012,USA,25608.768745049816,5.761640183553338
Georgia,US,2020-07-27 04:35:15,33.0406,-83.6431,167953,3498,,164455.0,13,1581.8621901001777,1428945,17091,2.0827255244026603,84000013,USA,13458.491763961933,10.176061159967372
Grand Princess,US,2020-07-27 04:35:15,,,103,3,,100.0,99999,,,,2.912621359223301,84099999,USA,,
Guam,US,2020-07-27 04:35:15,13.4443,144.7937,337,5,244,88.0,66,205.201273831053,20032,,1.4836795252225519,316,GUM,12197.602128734876,
Hawaii,US,2020-07-27 04:35:15,21.0943,-157.4983,1683,26,1167,490.0,15,118.86667721375943,114052,161,1.5448603683897801,84000015,USA,8055.247932016454,9.566250742721332
Idaho,US,2020-07-27 04:35:15,44.2405,-114.4788,18178,146,5483,12549.0,16,1017.1985909857783,166224,723,0.8031686654197382,84000016,USA,9301.50833909231,3.977335240400484
Illinois,US,2020-07-27 04:35:15,40.3495,-88.9861,172663,7590,,165073.0,17,1362.5744871238317,2512809,,4.395846243839155,84000017,USA,19829.896587080893,
Indiana,US,2020-07-27 04:35:15,39.8494,-86.2583,62372,2835,43809,15660.0,18,926.4701579078161,701311,8401,4.654332072083627,84000018,USA,10417.233901630354,13.469184890656063
Iowa,US,2020-07-27 04:35:15,42.0115,-93.2105,42357,829,29625,11903.0,19,1342.5058715020587,450599,,1.9571735486460324,84000019,USA,14281.74335276238,
Kansas,US,2020-07-27 04:35:15,38.5266,-96.7265,25289,331,1077,23882.0,20,868.083563941271,277967,1596,1.3088177145116646,84000020,USA,9541.264690314878,6.31079478054567
Kentucky,US,2020-07-27 04:35:15,37.6681,-84.6701,27082,700,7421,18961.0,21,606.1768620935328,541898,3266,2.5847426334834944,84000021,USA,12129.312060215687,12.059670629938704
Louisiana,US,2020-07-27 04:35:15,31.1695,-91.8678,107574,3763,61456,42355.0,22,2314.019506994717,1233264,,3.4980571513562757,84000022,USA,26528.686794897774,
Maine,US,2020-07-27 04:35:15,44.6939,-69.3819,3814,119,3284,411.0,23,283.73500608534965,155318,381,3.1200839014158364,84000023,USA,11554.576212680739,9.98951232302045
Maryland,US,2020-07-27 04:35:15,39.0639,-76.8021,83748,3440,5434,74874.0,24,1385.2536025724153,838572,12283,4.107560777570808,84000024,USA,13870.598510010454,14.666618904332044
Massachusetts,US,2020-07-27 04:35:15,42.2302,-71.5301,115637,8529,96452,10656.0,25,1677.7214315322024,1120759,11828,7.375666957807622,84000025,USA,16260.55150066674,10.228560062955628
Michigan,US,2020-07-27 04:35:15,43.3266,-84.5361,86661,6400,57502,22759.0,26,867.7504844617281,1670744,,7.385098256424459,84000026,USA,16729.427486545566,
Minnesota,US,2020-07-27 04:35:15,45.6945,-93.9002,51153,1614,44431,5108.0,27,907.0272670273522,957374,4920,3.155240161867339,84000027,USA,16975.823954470787,9.618204210896721
Mississippi,US,2020-07-27 04:35:15,32.7416,-89.6787,52154,1493,30315,20346.0,28,1752.3988214299754,423093,3982,2.862675921309967,84000028,USA,14216.122915888956,7.635080722475745
Missouri,US,2020-07-27 04:35:15,38.4561,-92.2884,43207,1222,,40951.0,29,686.9327021025746,626951,,2.8676470588235294,84000029,USA,10215.20741261649,
Montana,US,2020-07-27 04:35:15,46.9219,-110.4544,3341,46,2079,1216.0,30,312.5999973801856,152315,199,1.3768332834480694,84000030,USA,14251.322538450455,5.956300508829692
Nebraska,US,2020-07-27 04:35:15,41.1254,-98.2681,24618,316,18097,6205.0,31,1272.6374167187066,255464,1567,1.2836136160532943,84000031,USA,13206.314283232907,6.365261190998456
Nevada,US,2020-07-27 04:35:15,38.3135,-117.0554,42843,734,994,41115.0,32,1390.9360434990956,438931,,1.7132320332376352,84000032,USA,14250.284725838561,
New Hampshire,US,2020-07-27 04:35:15,43.4525,-71.5639,6436,409,5438,589.0,33,473.3358779917203,153609,688,6.354878806712244,84000033,USA,11297.180062527994,10.689869484151647
New Jersey,US,2020-07-27 04:35:15,40.2989,-74.521,181415,15787,32133,131443.0,34,2019.355586854143,1953289,21314,8.801703807362722,84000034,USA,21991.07427334925,11.883164309249956
New Mexico,US,2020-07-27 04:35:15,34.8405,-106.2485,19042,614,7268,11160.0,35,908.1331858725723,512425,2542,3.2244512131078666,84000035,USA,24438.09199510308,13.34943808423485
New York,US,2020-07-27 04:35:15,42.1657,-74.9481,411736,32464,72716,306390.0,36,2116.5071011934524,5569879,89995,7.924981055822177,84000036,USA,28631.66800155509,21.857452348106555
North Carolina,US,2020-07-27 04:35:15,35.6301,-79.8064,112937,1817,78707,32413.0,37,1076.8125045527859,1613385,,1.6088615776937585,84000037,USA,15383.028968875535,
North Dakota,US,2020-07-27 04:35:15,47.5289,-99.78399999999999,5876,99,4752,1025.0,38,771.0658712808145,146479,333,1.6848196051735875,84000038,USA,19221.40193317604,5.6671204901293395
Northern Mariana Islands,US,2020-07-27 04:35:15,15.0979,145.6739,40,2,29,9.0,69,72.53735673872045,11340,4,5.0,580,MNP,20564.340635427245,10.0
Ohio,US,2020-07-27 04:35:15,40.3888,-82.7649,84073,3070,58465,22301.0,39,719.2427132970032,1326431,10199,3.9334863749360673,84000039,USA,11347.588779290109,12.13112414211459
Oklahoma,US,2020-07-27 04:35:15,35.5653,-96.9289,31285,496,24698,6091.0,40,790.6300046171681,566913,2835,1.585424324756273,84000040,USA,14326.943513106364,9.061850727185552
Oregon,US,2020-07-27 04:35:15,44.571999999999996,-122.0709,16758,289,3541,12928.0,41,397.3220710537428,378475,1474,1.724549468910371,84000041,USA,8973.413942121095,8.795799021362932
Pennsylvania,US,2020-07-27 04:35:15,40.5908,-77.2098,111880,7132,80568,24050.0,42,872.8721763469723,1455189,,6.3779140006264265,84000042,USA,8875.191190993837,
Puerto Rico,US,2020-07-27 04:35:15,18.2208,-66.5901,15143,201,,14942.0,72,516.2254960782816,407596,,1.3273459684342601,630,PRI,12762.525151125938,
Rhode Island,US,2020-07-27 04:35:15,41.6809,-71.5118,18224,1022,1769,15453.0,44,1720.2823211350994,190028,2146,5.498244073748903,84000044,USA,17937.983369219746,11.775680421422301
South Carolina,US,2020-07-27 04:35:15,33.8569,-80.945,81199,1491,29378,50330.0,45,1577.0734206638783,647813,4827,1.836229510215643,84000045,USA,12582.035047975087,5.944654490818852
South Dakota,US,2020-07-27 04:35:15,44.2998,-99.4388,8395,123,7364,908.0,46,948.9532124807412,106926,801,1.4651578320428826,84000046,USA,12086.691030103124,9.541393686718285
Tennessee,US,2020-07-27 04:35:15,35.7478,-86.6923,93936,967,54730,38239.0,47,1375.510420440305,1382852,4244,1.0294242888775336,84000047,USA,20249.183869088705,4.517969681485266
Texas,US,2020-07-27 04:35:15,31.0545,-97.5635,394669,5416,229107,159901.0,48,1359.1033843738012,3369975,,1.2880502633956212,84000048,USA,11622.254209140947,
Utah,US,2020-07-27 04:35:15,40.15,-111.8624,37973,274,24798,12901.0,49,1184.4509503867487,505351,2234,0.7215653227293076,84000049,USA,15762.870255942218,5.883127485318516
Vermont,US,2020-07-27 04:35:15,44.0459,-72.7107,1400,56,1186,158.0,50,224.3629294747183,89809,,4.0,84000050,USA,14392.72166656784,
Virgin Islands,US,2020-07-27 04:35:15,18.3358,-64.8963,352,7,238,107.0,78,328.15005407017935,8352,,1.9886363636363635,850,VIR,7786.105828392438,
Virginia,US,2020-07-27 04:35:15,37.7693,-78.17,84567,2078,10882,71607.0,51,990.7657636284331,1028240,12056,2.457223266758901,84000051,USA,12046.601969956368,14.25615192687455
Washington,US,2020-07-27 04:35:15,47.4009,-121.4905,53339,1537,,51134.0,53,691.2112881953824,903674,5341,2.8517146385484944,84000053,USA,11867.192355821677,10.147240429372092
West Virginia,US,2020-07-27 04:35:15,38.4912,-80.9545,5889,103,4168,1618.0,54,328.6002766514131,261726,,1.7490236033282391,84000054,USA,14604.04754743891,
Wisconsin,US,2020-07-27 04:35:15,44.2685,-89.6165,48827,892,37971,9964.0,55,838.6011760717254,870229,4394,1.8268580908104122,84000055,USA,14946.137646214624,8.999119339709587
Wyoming,US,2020-07-27 04:35:15,42.756,-107.3025,2475,25,1883,567.0,56,427.6391382250643,48298,158,1.0101010101010102,84000056,USA,8345.097009290568,6.383838383838384
