Province_State,Country_Region,Last_Update,Lat,Long_,Confirmed,Deaths,Recovered,Active,FIPS,Incident_Rate,Total_Test_Results,People_Hospitalized,Case_Fatality_Ratio,UID,ISO3,Testing_Rate,Hospitalization_Rate
Alabama,US,2021-08-07 04:31:08,32.3182,-86.9023,603318,11600,,,1.0,12304.614245638297,5051217.0,,1.922700797920831,84000001.0,USA,103019.09881026312,
Alaska,US,2021-08-07 04:31:08,61.3707,-152.4044,77586,398,,,2.0,10605.772713913702,2530710.0,,0.5129791457221664,84000002.0,USA,345940.4411211887,
American Samoa,US,2021-08-07 04:31:08,-14.271,-170.132,0,0,,,60.0,0.0,2140.0,,,16.0,ASM,3846.084721698028,
Arizona,US,2021-08-07 04:31:08,33.7298,-111.4312,940762,18342,,,4.0,12924.832769291621,10844733.0,,1.9496960974189008,84000004.0,USA,148992.37049606408,
Arkansas,US,2021-08-07 04:31:08,34.9697,-92.3731,400275,6269,,,5.0,13263.783864028279,3361811.0,,1.5661732558865782,84000005.0,USA,111399.24925541882,
California,US,2021-08-07 04:31:08,36.1162,-119.6816,4119049,64330,,,6.0,10203.96903510086,74620314.0,,1.605505212912795,84000006.0,USA,188853.74786430006,
Colorado,US,2021-08-07 04:31:08,39.0598,-105.3111,581692,6978,,,8.0,10101.036060691096,9569772.0,,1.19960391409887,84000008.0,USA,166178.34191392,
Connecticut,US,2021-08-07 04:31:08,41.5978,-72.7554,358076,8296,,,9.0,10043.399030709168,9155364.0,,2.3168265954713525,84000009.0,USA,256791.78141899934,
Delaware,US,2021-08-07 04:31:08,39.3185,-75.5071,112298,1833,,,10.0,11532.363077706714,1964175.0,,1.6322641543037275,84000010.0,USA,201709.55180105238,
Diamond Princess,US,2021-08-07 04:31:08,,,49,0,,,88888.0,,,,0.0,84088888.0,USA,,
District of Columbia,US,2021-08-07 04:31:08,38.8974,-77.0268,51103,1149,,,11.0,7240.959604618639,1747398.0,,2.248400289611177,84000011.0,USA,247594.82478898304,
Florida,US,2021-08-07 04:31:08,27.7663,-81.6868,2768985,39695,,,12.0,12892.349878388024,34122709.0,,1.433557783808869,84000012.0,USA,158874.78741359018,
Georgia,US,2021-08-07 04:31:08,33.0406,-83.6431,1211439,21802,,,13.0,11409.915569908066,9600814.0,,1.7996779037161592,84000013.0,USA,90425.08714214363,
Grand Princess,US,2021-08-07 04:31:08,,,103,3,,,99999.0,,,,2.9126213592233015,84099999.0,USA,,
Guam,US,2021-08-07 04:31:08,13.4443,144.7937,8673,143,,,66.0,5281.0404983285525,178718.0,,1.648795111264845,316.0,GUM,108822.43696302113,
Hawaii,US,2021-08-07 04:31:08,21.0943,-157.4983,45245,540,,,15.0,3195.5572255119105,1883809.0,,1.1935020444247983,84000015.0,USA,133049.38582018713,
Idaho,US,2021-08-07 04:31:08,44.2405,-114.4788,204091,2217,,,16.0,11420.457565897155,833841.0,,1.0862801397415858,84000016.0,USA,46659.802525369814,
Illinois,US,2021-08-07 04:31:08,40.3495,-88.9861,1436353,25936,,,17.0,11335.0164905265,27119503.0,,1.8056842572821583,84000017.0,USA,214014.2525687508,
Indiana,US,2021-08-07 04:31:08,39.8494,-86.2583,781326,14054,,,18.0,11605.77218299048,11339156.0,,1.7987370188628051,84000018.0,USA,168431.18145740655,
Iowa,US,2021-08-07 04:31:08,42.0115,-93.2105,382401,6193,,,19.0,12120.206524736377,1529873.0,,1.619504133095886,84000019.0,USA,48489.35205874989,
Kansas,US,2021-08-07 04:31:08,38.5266,-96.7265,340491,5305,,,20.0,11687.411655592225,1523652.0,,1.5580441186404341,84000020.0,USA,52299.61480293577,
Kentucky,US,2021-08-07 04:31:08,37.6681,-84.6701,495132,7372,,,21.0,11082.54789461986,5726032.0,,1.4888958903888256,84000021.0,USA,128165.87068928275,
Louisiana,US,2021-08-07 04:31:08,31.1695,-91.8678,573903,11210,,,22.0,12345.201787818518,7731484.0,,1.9532917583633471,84000022.0,USA,166311.60683824663,
Maine,US,2021-08-07 04:31:08,44.6939,-69.3819,71141,900,,,23.0,5292.394354461945,2418092.0,,1.26509326548685,84000023.0,USA,179889.18414654827,
Maryland,US,2021-08-07 04:31:08,39.0639,-76.8021,472224,9846,,,24.0,7810.932765214168,11370660.0,,2.0850274446025616,84000024.0,USA,188079.09118577235,
Massachusetts,US,2021-08-07 04:31:08,42.2302,-71.5301,726395,18095,,,25.0,10538.914527857296,24847641.0,,2.4910689087892948,84000025.0,USA,360502.43286074745,
Michigan,US,2021-08-07 04:31:08,43.3266,-84.5361,1018601,21221,,,26.0,10199.415091254436,14659708.0,,2.083347650355733,84000026.0,USA,146790.00610502384,
Minnesota,US,2021-08-07 04:31:08,45.6945,-93.9002,617788,7787,,,27.0,10954.402698615795,9791227.0,,1.260464754899739,84000027.0,USA,173614.6436505077,
Mississippi,US,2021-08-07 04:31:08,32.7416,-89.6787,358149,7621,,,28.0,12033.974105463134,2076027.0,,2.1278853214723483,84000028.0,USA,69755.47931235969,
Missouri,US,2021-08-07 04:31:08,38.4561,-92.2884,703914,10265,,,29.0,11469.20175682713,6160143.0,,1.4582747324246996,84000029.0,USA,100370.10617476898,
Montana,US,2021-08-07 04:31:08,46.9219,-110.4544,117882,1722,,,30.0,11029.605774070948,1530627.0,,1.4607828167150199,84000030.0,USA,143212.80939540296,
Nebraska,US,2021-08-07 04:31:08,41.1254,-98.2681,230630,2289,,,31.0,11922.51065959198,3172201.0,,0.9924988076139272,84000031.0,USA,163988.20724480046,
Nevada,US,2021-08-07 04:31:08,38.3135,-117.0554,363574,6005,,,32.0,11803.752796936258,3774069.0,,1.6516582593914857,84000032.0,USA,122528.50180315544,
New Hampshire,US,2021-08-07 04:31:08,43.4525,-71.5639,101662,1389,,,33.0,7476.7358651948825,2148230.0,,1.3662922232495918,84000033.0,USA,157991.6614633551,
New Jersey,US,2021-08-07 04:31:08,40.2989,-74.521,1046514,26636,,,34.0,11782.161831710422,14851188.0,,2.5452120086305583,84000034.0,USA,167201.87251117124,
New Mexico,US,2021-08-07 04:31:08,34.8405,-106.2485,213793,4425,,,35.0,10196.015030314824,3852599.0,,2.0697590660124514,84000035.0,USA,183734.53438501665,
New York,US,2021-08-07 04:31:08,42.1657,-74.9481,2168589,53694,,,36.0,11147.516899348147,61760779.0,,2.475987842786254,84000036.0,USA,317478.0134084449,
North Carolina,US,2021-08-07 04:31:08,35.6301,-79.8064,1071137,13736,,,37.0,10212.894938675166,13066568.0,,1.2823756438252063,84000037.0,USA,124584.8908151384,
North Dakota,US,2021-08-07 04:31:08,47.5289,-99.784,112169,1573,,,38.0,14719.143586742286,1613642.0,,1.4023482423842597,84000038.0,USA,211746.81325141524,
Northern Mariana Islands,US,2021-08-07 04:31:08,15.0979,145.6739,183,2,,,69.0,331.8584070796461,17542.0,,1.0928961748633879,580.0,MNP,31811.25779776585,
Ohio,US,2021-08-07 04:31:08,40.3888,-82.7649,1138600,20758,,,39.0,9740.698599550009,14180690.0,,1.8053750219567892,84000039.0,USA,121315.49905467489,
Oklahoma,US,2021-08-07 04:31:08,35.5653,-96.9289,493983,7531,,,40.0,12483.867079137048,4249962.0,,1.524546391272574,84000040.0,USA,107404.42626443306,
Oregon,US,2021-08-07 04:31:08,44.572,-122.0709,226899,2889,,,41.0,5379.638417473636,5771922.0,,1.2732537384475031,84000041.0,USA,136848.78881732075,
Pennsylvania,US,2021-08-07 04:31:08,40.5908,-77.2098,1238552,27898,,,42.0,9674.684144784063,15169056.0,,2.2524690122013453,84000042.0,USA,118489.83779004964,
Puerto Rico,US,2021-08-07 04:31:08,18.2208,-66.5901,150688,2604,,,72.0,4718.297995988344,2514536.0,,1.7280739010405606,630.0,PRI,78734.40598880168,
Rhode Island,US,2021-08-07 04:31:08,41.6809,-71.5118,155825,2743,,,44.0,14709.338931676735,4646974.0,,1.7603080378629874,84000044.0,USA,438658.20999640354,
South Carolina,US,2021-08-07 04:31:08,33.8569,-80.945,634310,9950,,,45.0,12319.775384688292,6993039.0,,1.5686336333969195,84000045.0,USA,135821.08075919538,
South Dakota,US,2021-08-07 04:31:08,44.2998,-99.4388,125599,2052,,,46.0,14197.447830180894,844197.0,,1.6337709695140883,84000046.0,USA,95426.26028786233,
Tennessee,US,2021-08-07 04:31:08,35.7478,-86.6923,914110,12820,,,47.0,13385.366956530906,8505278.0,,1.4024570347113583,84000047.0,USA,124543.29030128679,
Texas,US,2021-08-07 04:31:08,31.0545,-97.5635,3224572,53607,,,48.0,11120.79332923183,27376834.0,,1.6624531875858253,84000048.0,USA,94416.2862304477,
Utah,US,2021-08-07 04:31:08,40.15,-111.8624,438479,2494,,,49.0,13677.003878403897,3745156.0,,0.5687843659559523,84000049.0,USA,116818.62332569547,
Vermont,US,2021-08-07 04:31:08,44.0459,-72.7107,25320,260,,,50.0,4057.76383878562,1788900.0,,1.0268562401263823,84000050.0,USA,286687.7460980883,
Virgin Islands,US,2021-08-07 04:31:08,18.3358,-64.8963,4907,40,,,78.0,4574.523623074915,149575.0,,0.8151620134501733,850.0,VIR,139440.46686803148,
Virginia,US,2021-08-07 04:31:08,37.7693,-78.17,704664,11558,,,51.0,8255.666702868331,8056420.0,,1.6402143432898515,84000051.0,USA,94386.9962681824,
Washington,US,2021-08-07 04:31:08,47.4009,-121.4905,488640,6168,,,53.0,6416.89909497087,8910317.0,,1.262278978388998,84000053.0,USA,117011.71638262023,
West Virginia,US,2021-08-07 04:31:08,38.4912,-80.9545,169162,2965,,,54.0,9439.06945133407,3188155.0,,1.7527577115427817,84000054.0,USA,177895.84224954763,
Wisconsin,US,2021-08-07 04:31:08,44.2685,-89.6165,695245,8300,,,55.0,11940.796580948792,9398908.0,,1.1938237599695072,84000055.0,USA,161425.75424641994,
Wyoming,US,2021-08-07 04:31:08,42.756,-107.3025,66453,786,,,56.0,11481.981273725332,827634.0,,1.182790844657126,84000056.0,USA,143001.49112152035,
