Province_State,Country_Region,Last_Update,Lat,Long_,Confirmed,Deaths,Recovered,Active,FIPS,Incident_Rate,Total_Test_Results,People_Hospitalized,Case_Fatality_Ratio,UID,ISO3,Testing_Rate,Hospitalization_Rate
Alabama,US,2021-08-29 04:31:43,32.3182,-86.9023,688018,12219,,,1.0,14032.06283262818,5365541.0,,1.7759709775034955,84000001.0,USA,109429.70742486771,
Alaska,US,2021-08-29 04:31:43,61.3707,-152.4044,86753,438,,,2.0,11858.874026888298,2701808.0,,0.5048816755616521,84000002.0,USA,369329.0228215626,
American Samoa,US,2021-08-29 04:31:43,-14.270999999999999,-170.132,0,0,,,60.0,0.0,2140.0,,,16.0,ASM,3846.084721698028,
Arizona,US,2021-08-29 04:31:43,33.7298,-111.4312,1005764,18779,,,4.0,13817.874771061988,11622513.0,,1.8671378176192424,84000004.0,USA,159678.0449081892,
Arkansas,US,2021-08-29 04:31:43,34.9697,-92.3731,448596,6854,,,5.0,14864.981291031492,3594710.0,,1.5278780907542644,84000005.0,USA,119116.74847007955,
California,US,2021-08-29 07:30:58,36.1162,-119.6816,4424270,65307,,,6.0,10929.66346135473,80625922.0,,1.5211113537335306,84000006.0,USA,204053.11541190682,
Colorado,US,2021-08-29 04:31:43,39.0598,-105.3111,610127,7111,,,8.0,10594.807610558984,10067407.0,,1.1654950526693624,84000008.0,USA,174819.73474734733,
Connecticut,US,2021-08-29 04:31:43,41.5978,-72.7554,370708,8358,,,9.0,10397.704308236616,9451569.0,,2.2546047023533347,84000009.0,USA,265099.8082342319,
Delaware,US,2021-08-29 04:31:43,39.3185,-75.5071,118926,1877,,,10.0,12213.020814078154,2041443.0,,1.5782923834989826,84000010.0,USA,209644.53399386298,
Diamond Princess,US,2021-08-29 04:31:43,,,49,0,,,88888.0,,,,0.0,84088888.0,USA,,
District of Columbia,US,2021-08-29 04:31:43,38.8974,-77.0268,54556,1159,,,11.0,7730.227035390769,1843464.0,,2.1244226116284186,84000011.0,USA,261206.74630782328,
Florida,US,2021-08-29 04:31:43,27.7663,-81.6868,3223249,43979,,,12.0,15007.395797797504,36838794.0,,1.3644307343304845,84000012.0,USA,171520.8357379551,
Georgia,US,2021-08-29 04:31:43,33.0406,-83.6431,1369926,22553,,,13.0,12902.622416004337,10309938.0,,1.6462933034339082,84000013.0,USA,97103.95827688133,
Grand Princess,US,2021-08-29 04:31:43,,,103,3,,,99999.0,,,,2.912621359223301,84099999.0,USA,,
Guam,US,2021-08-29 04:31:43,13.4443,144.7937,10155,145,,,66.0,6183.438978499535,196595.0,,1.4278680452978831,316.0,GUM,119707.84696978,
Hawaii,US,2021-08-29 04:31:43,21.0943,-157.4983,60551,587,,,15.0,4276.587149120825,2063779.0,,0.9694307278162212,84000015.0,USA,145760.28059033587,
Idaho,US,2021-08-29 04:31:43,44.2405,-114.4788,217887,2327,,,16.0,12192.449631099036,872285.0,,1.067984781102131,84000016.0,USA,48811.0393298509,
Illinois,US,2021-08-29 04:31:43,40.3495,-88.9861,1508005,26322,,,17.0,11900.460083834832,28568305.0,,1.7454849287634988,84000017.0,USA,225447.5106616484,
Indiana,US,2021-08-29 04:31:43,39.8494,-86.2583,843700,14373,,,18.0,12532.272048785106,12121074.0,,1.703567618821856,84000018.0,USA,180045.74717489138,
Iowa,US,2021-08-29 04:31:43,42.0115,-93.2105,402725,6268,,,19.0,12680.606135521555,1567512.0,,1.5666788308396784,84000019.0,USA,49682.32083598778,
Kansas,US,2021-08-29 04:31:43,38.5266,-96.7265,366746,5550,,,20.0,12588.619009142169,1600222.0,,1.5133089386114642,84000020.0,USA,54927.89311416484,
Kentucky,US,2021-08-29 04:31:43,37.6681,-84.6701,562623,7685,,,21.0,12593.200084249675,6128689.0,,1.3659235402747487,84000021.0,USA,137178.54910151212,
Louisiana,US,2021-08-29 04:31:43,31.1695,-91.8678,679796,12359,,,22.0,14623.061378929675,8466880.0,,1.818045413624088,84000022.0,USA,182130.6773326588,
Maine,US,2021-08-29 04:31:43,44.6939,-69.3819,75381,930,,,23.0,5607.820790172978,2528523.0,,1.2337326381979543,84000023.0,USA,188104.48054324766,
Maryland,US,2021-08-29 04:31:43,39.0639,-76.8021,493915,9983,,,24.0,8169.717881197814,11901899.0,,2.0211979794094126,84000024.0,USA,196866.17551706336,
Massachusetts,US,2021-08-29 04:31:43,42.2302,-71.5301,753795,18219,,,25.0,10936.447905789812,25925775.0,,2.4169701311364498,84000025.0,USA,376144.55880541506,
Michigan,US,2021-08-29 04:31:43,43.3266,-84.5361,1054709,21520,,,26.0,10560.970283243269,15179724.0,,2.0403732214288492,84000026.0,USA,151997.00966980902,
Minnesota,US,2021-08-29 04:31:43,45.6945,-93.9002,644190,7892,,,27.0,11422.553812021775,10294420.0,,1.22510439466617,84000027.0,USA,182537.08752627828,
Mississippi,US,2021-08-29 04:31:43,32.7416,-89.6787,427640,8279,,,28.0,14368.90424504956,2244736.0,,1.9359741838929945,84000028.0,USA,75424.18071138239,
Missouri,US,2021-08-29 04:31:43,38.4561,-92.2884,759065,10908,,,29.0,12367.80292982663,6506809.0,,1.4370310842944938,84000029.0,USA,106018.49830254627,
Montana,US,2021-08-29 04:31:43,46.9219,-110.4544,125616,1783,,,30.0,11753.235938614003,1621207.0,,1.4194051713157558,84000030.0,USA,151687.90899513275,
Nebraska,US,2021-08-29 04:31:43,41.1254,-98.2681,242498,2319,,,31.0,12536.03169548513,3353469.0,,0.9562965467756436,84000031.0,USA,173358.92945025038,
Nevada,US,2021-08-29 04:31:43,38.3135,-117.0554,386559,6433,,,32.0,12549.981234716684,3994655.0,,1.6641702818974593,84000032.0,USA,129690.0221936811,
New Hampshire,US,2021-08-29 04:31:43,43.4525,-71.5639,106525,1415,,,33.0,7834.385395131759,2227362.0,,1.3283266838770242,84000033.0,USA,163811.42757541858,
New Jersey,US,2021-08-29 04:31:43,40.2989,-74.521,1086480,26844,,,34.0,12232.118430251998,15161710.0,,2.47073116854429,84000034.0,USA,170697.87968958105,
New Mexico,US,2021-08-29 04:31:43,34.8405,-106.2485,229509,4505,,,35.0,10945.527746897817,4101017.0,,1.9628859870419024,84000035.0,USA,195581.85240665785,
New York,US,2021-08-29 04:31:43,42.1657,-74.9481,2262893,54159,,,36.0,11632.281616717883,64767808.0,,2.3933522265524707,84000036.0,USA,332935.4867214285,
North Carolina,US,2021-08-29 04:31:43,35.6301,-79.8064,1189296,14319,,,37.0,11339.497280914224,13959013.0,,1.2039895871170845,84000037.0,USA,133094.02365579837,
North Dakota,US,2021-08-29 04:31:43,47.5289,-99.78399999999999,116666,1592,,,38.0,15309.25305290121,1655480.0,,1.3645792261670069,84000038.0,USA,217236.91773110325,
Northern Mariana Islands,US,2021-08-29 04:31:43,15.0979,145.6739,183,2,,,69.0,331.8584070796461,17542.0,,1.092896174863388,580.0,MNP,31811.25779776585,
Ohio,US,2021-08-29 04:31:43,40.3888,-82.7649,1207932,21309,,,39.0,10333.832373749903,14796866.0,,1.7218684495484846,84000039.0,USA,126586.87152988682,
Oklahoma,US,2021-08-29 04:31:43,35.5653,-96.9289,542412,7812,,,40.0,13707.757777350404,4306399.0,,1.4402336231499304,84000040.0,USA,108830.69398284698,
Oregon,US,2021-08-29 04:31:43,44.571999999999996,-122.0709,268401,3115,,,41.0,6363.625802177803,6227955.0,,1.1605768979996351,84000041.0,USA,147661.05615404662,
Pennsylvania,US,2021-08-29 04:31:43,40.5908,-77.2098,1291324,28205,,,42.0,10086.901340096449,15827365.0,,2.18419234831847,84000042.0,USA,123632.07779666113,
Puerto Rico,US,2021-08-29 04:31:43,18.2208,-66.5901,169395,2826,,,72.0,5304.046035719139,2673485.0,,1.6682900912069425,630.0,PRI,83711.36996844407,
Rhode Island,US,2021-08-29 04:31:43,41.6809,-71.5118,161701,2764,,,44.0,15264.012928548435,4826881.0,,1.7093277097853443,84000044.0,USA,455640.8061085881,
South Carolina,US,2021-08-29 04:31:43,33.8569,-80.945,714265,10452,,,45.0,13872.687432240362,7570214.0,,1.463322436350654,84000045.0,USA,147031.16156772352,
South Dakota,US,2021-08-29 04:31:43,44.2998,-99.4388,130776,2064,,,46.0,14782.645064369435,874883.0,,1.5782712424298035,84000046.0,USA,98894.94144071332,
Tennessee,US,2021-08-29 04:31:43,35.7478,-86.6923,1021578,13338,,,47.0,14959.027255712037,8985737.0,,1.305627176779453,84000047.0,USA,131578.6799399166,
Texas,US,2021-08-29 04:31:43,31.0545,-97.5635,3566549,56577,,,48.0,12300.19187897757,29253031.0,,1.5863233618828734,84000048.0,USA,100886.85010122645,
Utah,US,2021-08-29 04:31:43,40.15,-111.8624,459875,2623,,,49.0,14344.386295765571,3895328.0,,0.5703723837999456,84000049.0,USA,121502.7770170414,
Vermont,US,2021-08-29 04:31:43,44.0459,-72.7107,27835,275,,,50.0,4460.815815663417,1872238.0,,0.9879647925273936,84000050.0,USA,300043.4302527769,
Virgin Islands,US,2021-08-29 04:31:43,18.3358,-64.8963,5774,53,,,78.0,5382.77958011709,165631.0,,0.9179078628333912,850.0,VIR,154408.58410709625,
Virginia,US,2021-08-29 04:31:43,37.7693,-78.17,754652,11769,,,51.0,8841.313574487973,8476562.0,,1.5595267752553494,84000051.0,USA,99309.27457369614,
Washington,US,2021-08-29 04:31:43,47.4009,-121.4905,550988,6507,,,53.0,7235.66306184473,9403380.0,,1.1809694585000037,84000053.0,USA,123486.69902518655,
West Virginia,US,2021-08-29 04:31:43,38.4912,-80.9545,186293,3064,,,54.0,10394.96202041462,3386850.0,,1.6447209503309304,84000054.0,USA,188982.82339562546,
Wisconsin,US,2021-08-29 04:31:43,44.2685,-89.6165,727353,8438,,,55.0,12492.249804806721,9818535.0,,1.1600969542986692,84000055.0,USA,168632.82606552518,
Wyoming,US,2021-08-29 04:31:43,42.756,-107.3025,73467,835,,,56.0,12693.884673931636,881212.0,,1.136564716131052,84000056.0,USA,152258.8849590244,
