Province_State,Country_Region,Last_Update,Lat,Long_,Confirmed,Deaths,Recovered,Active,FIPS,Incident_Rate,Total_Test_Results,People_Hospitalized,Case_Fatality_Ratio,UID,ISO3,Testing_Rate,Hospitalization_Rate
Alabama,US,2021-09-06 04:31:49,32.3182,-86.9023,722122,12415,,,1.0,14727.610726497163,5488292.0,,1.7192385774148966,84000001.0,USA,111933.20260198218,
Alaska,US,2021-09-06 04:31:49,61.3707,-152.4044,90642,448,,,2.0,12390.488623392957,2773181.0,,0.4942521127071336,84000002.0,USA,379085.4971327806,
American Samoa,US,2021-09-06 04:31:49,-14.270999999999999,-170.132,0,0,,,60.0,0.0,2140.0,,,16.0,ASM,3846.084721698028,
Arizona,US,2021-09-06 04:31:49,33.7298,-111.4312,1030430,18998,,,4.0,14156.753175044449,11935316.0,,1.8436963209533883,84000004.0,USA,163975.54678935866,
Arkansas,US,2021-09-06 04:31:49,34.9697,-92.3731,463795,7057,,,5.0,15368.625662899249,3684842.0,,1.5215774210588728,84000005.0,USA,122103.42354904428,
California,US,2021-09-06 04:31:49,36.1162,-119.6816,4529799,66058,,,6.0,11182.281492995215,83695281.0,,1.5044016252154642,84000006.0,USA,211821.240733532,
Colorado,US,2021-09-06 04:31:49,39.0598,-105.3111,622344,7194,,,8.0,10806.95485953862,10280709.0,,1.1559523350429988,84000008.0,USA,178523.7072857655,
Connecticut,US,2021-09-06 04:31:49,41.5978,-72.7554,375135,8394,,,9.0,10521.873835121827,9521912.0,,2.2375944659922427,84000009.0,USA,267072.8050785252,
Delaware,US,2021-09-06 04:31:49,39.3185,-75.5071,122111,1891,,,10.0,12540.102119199311,2080672.0,,1.5485910360246005,84000010.0,USA,213673.12819122497,
Diamond Princess,US,2021-09-06 04:31:49,,,49,0,,,88888.0,,,,0.0,84088888.0,USA,,
District of Columbia,US,2021-09-06 04:31:49,38.8974,-77.0268,55918,1162,,,11.0,7923.213493749196,1882467.0,,2.078042848456669,84000011.0,USA,266733.2153499332,
Florida,US,2021-09-06 04:31:49,27.7663,-81.6868,3352451,46324,,,12.0,15608.95824359894,37759466.0,,1.3817949911870449,84000012.0,USA,175807.46984656717,
Georgia,US,2021-09-06 04:31:49,33.0406,-83.6431,1433714,23120,,,13.0,13503.408501290756,10623648.0,,1.6125949805888762,84000013.0,USA,100058.6300461044,
Grand Princess,US,2021-09-06 04:31:49,,,103,3,,,99999.0,,,,2.912621359223301,84099999.0,USA,,
Guam,US,2021-09-06 04:31:49,13.4443,144.7937,11292,151,,,66.0,6875.764937982938,204113.0,,1.3372298972724053,316.0,GUM,124285.60120319795,
Hawaii,US,2021-09-06 04:31:49,21.0943,-157.4983,67509,624,,,15.0,4768.015752836414,2157985.0,,0.924321201617562,84000015.0,USA,152413.84814446507,
Idaho,US,2021-09-06 04:31:49,44.2405,-114.4788,225544,2379,,,16.0,12620.917537974276,890044.0,,1.0547831021884866,84000016.0,USA,49804.79165559171,
Illinois,US,2021-09-06 04:31:49,40.3495,-88.9861,1538324,26500,,,17.0,12139.723248931623,29177890.0,,1.722654005268071,84000017.0,USA,230258.0663031777,
Indiana,US,2021-09-06 04:31:49,39.8494,-86.2583,873480,14570,,,18.0,12974.622483314937,12450587.0,,1.6680404817511565,84000018.0,USA,184940.3146273168,
Iowa,US,2021-09-06 04:31:49,42.0115,-93.2105,411577,6307,,,19.0,12943.928343903623,1582989.0,,1.544357109625603,84000019.0,USA,50172.86462740922,
Kansas,US,2021-09-06 04:31:49,38.5266,-96.7265,378080,5635,,,20.0,12977.660492483818,1636900.0,,1.4904253068133728,84000020.0,USA,56186.871720659015,
Kentucky,US,2021-09-06 04:31:49,37.6681,-84.6701,592489,7845,,,21.0,13261.691265229123,6307788.0,,1.3240752148985044,84000021.0,USA,141187.32503475522,
Louisiana,US,2021-09-06 04:31:49,31.1695,-91.8678,696900,12707,,,22.0,14990.98475862772,8610170.0,,1.8233605969292581,84000022.0,USA,185212.9821196637,
Maine,US,2021-09-06 04:31:49,44.6939,-69.3819,78071,940,,,23.0,5807.938033583988,2557630.0,,1.2040322270753545,84000023.0,USA,190269.83838858755,
Maryland,US,2021-09-06 04:31:49,39.0639,-76.8021,503034,10073,,,24.0,8320.552857577642,12145368.0,,2.0024491386268126,84000024.0,USA,200893.33209829172,
Massachusetts,US,2021-09-06 04:31:49,42.2302,-71.5301,765584,18286,,,25.0,11107.488817922895,26404888.0,,2.3885034169993102,84000025.0,USA,383095.77812298376,
Michigan,US,2021-09-06 04:31:49,43.3266,-84.5361,1070963,21672,,,26.0,10723.724190703842,15364117.0,,2.0235993213584407,84000026.0,USA,153843.3663363759,
Minnesota,US,2021-09-06 04:31:49,45.6945,-93.9002,655418,7937,,,27.0,11621.64481654122,10460271.0,,1.2109829147200717,84000027.0,USA,185477.89997645238,
Mississippi,US,2021-09-06 04:31:49,32.7416,-89.6787,446863,8540,,,28.0,15014.806046337064,2305157.0,,1.911100270105156,84000028.0,USA,77454.35460388576,
Missouri,US,2021-09-06 04:31:49,38.4561,-92.2884,776752,11138,,,29.0,12655.985536612405,6635622.0,,1.4339197066760048,84000029.0,USA,108117.30907474595,
Montana,US,2021-09-06 04:31:49,46.9219,-110.4544,129487,1811,,,30.0,12115.425280086229,1659036.0,,1.3985959980538587,84000030.0,USA,155227.37182090204,
Nebraska,US,2021-09-06 04:31:49,41.1254,-98.2681,247320,2347,,,31.0,12785.306925943234,3428459.0,,0.9489729904577068,84000031.0,USA,177235.56767755302,
Nevada,US,2021-09-06 04:31:49,38.3135,-117.0554,394595,6583,,,32.0,12810.877111419033,4075315.0,,1.6682928065484863,84000032.0,USA,132308.720727132,
New Hampshire,US,2021-09-06 04:31:49,43.4525,-71.5639,108713,1426,,,33.0,7995.301942839324,2263218.0,,1.3117106509801035,84000033.0,USA,166448.45853273233,
New Jersey,US,2021-09-06 04:31:49,40.2989,-74.521,1102488,26948,,,34.0,12412.344252937619,15238063.0,,2.4442896430618752,84000034.0,USA,171557.49877001054,
New Mexico,US,2021-09-06 04:31:49,34.8405,-106.2485,235390,4552,,,35.0,11225.998877352422,4204787.0,,1.9338119716215645,84000035.0,USA,200530.75381921945,
New York,US,2021-09-06 04:31:49,42.1657,-74.9481,2303739,54420,,,36.0,11842.248316387937,65947120.0,,2.3622467649330066,84000036.0,USA,338997.6775974332,
North Carolina,US,2021-09-06 04:31:49,35.6301,-79.8064,1237393,14708,,,37.0,11798.084378424124,14305679.0,,1.1886280268273701,84000037.0,USA,136399.35568784538,
North Dakota,US,2021-09-06 04:31:49,47.5289,-99.78399999999999,119556,1596,,,38.0,15688.487288435846,1676591.0,,1.3349392753186788,84000038.0,USA,220007.1647713703,
Northern Mariana Islands,US,2021-09-06 04:31:49,15.0979,145.6739,243,2,,,69.0,440.6644421877266,17542.0,,0.8230452674897121,580.0,MNP,31811.25779776585,
Ohio,US,2021-09-06 04:31:49,40.3888,-82.7649,1253198,21686,,,39.0,10721.082033689505,15116781.0,,1.6714836761629048,84000039.0,USA,129323.73749903755,
Oklahoma,US,2021-09-06 04:31:49,35.5653,-96.9289,560850,8001,,,40.0,14173.720252182793,4368516.0,,1.4265846483016849,84000040.0,USA,110400.50584146306,
Oregon,US,2021-09-06 04:31:49,44.571999999999996,-122.0709,283873,3272,,,41.0,6730.4575889867,6396417.0,,1.1526281118669264,84000041.0,USA,151655.1885525342,
Pennsylvania,US,2021-09-06 04:31:49,40.5908,-77.2098,1318603,28393,,,42.0,10299.985416328665,16129609.0,,2.153263719254393,84000042.0,USA,125992.9921826991,
Puerto Rico,US,2021-09-06 04:31:49,18.2208,-66.5901,174318,2919,,,72.0,5458.19355266973,2726828.0,,1.6745258665198086,630.0,PRI,85381.63017496353,
Rhode Island,US,2021-09-06 04:31:49,41.6809,-71.5118,163742,2773,,,44.0,15456.676241621128,4906701.0,,1.6935178512538016,84000044.0,USA,463175.5369510488,
South Carolina,US,2021-09-06 04:31:49,33.8569,-80.945,752378,10781,,,45.0,14612.930529837158,7842300.0,,1.4329233443827438,84000045.0,USA,152315.7044652315,
South Dakota,US,2021-09-06 04:31:49,44.2998,-99.4388,133855,2074,,,46.0,15130.688773866541,891573.0,,1.5494378245115985,84000046.0,USA,100781.54407517472,
Tennessee,US,2021-09-06 04:31:49,35.7478,-86.6923,1071125,13622,,,47.0,15684.546915922774,9182488.0,,1.2717469949819116,84000047.0,USA,134459.7165045143,
Texas,US,2021-09-06 04:31:49,31.0545,-97.5635,3703715,58420,,,48.0,12773.245275768651,30179893.0,,1.5773351891276732,84000048.0,USA,104083.37998076348,
Utah,US,2021-09-06 04:31:49,40.15,-111.8624,469429,2658,,,49.0,14642.393942777793,3956543.0,,0.5662198117287173,84000049.0,USA,123412.19067748234,
Vermont,US,2021-09-06 04:31:49,44.0459,-72.7107,28994,282,,,50.0,4646.556269421416,1924975.0,,0.9726150237980272,84000050.0,USA,308495.02154685423,
Virgin Islands,US,2021-09-06 04:31:49,18.3358,-64.8963,6026,60,,,78.0,5617.705187008241,167970.0,,0.9956853634251576,850.0,VIR,156589.10392661372,
Virginia,US,2021-09-06 04:31:49,37.7693,-78.17,778167,11899,,,51.0,9116.809417212942,8639578.0,,1.5291062201301262,84000051.0,USA,101219.1291472727,
Washington,US,2021-09-06 04:31:49,47.4009,-121.4905,575490,6691,,,53.0,7557.427267855241,9586137.0,,1.1626613842117153,84000053.0,USA,125886.69335209305,
West Virginia,US,2021-09-06 04:31:49,38.4912,-80.9545,197984,3124,,,54.0,11047.308061224887,3506498.0,,1.5779052852755775,84000054.0,USA,195659.06144975827,
Wisconsin,US,2021-09-06 04:31:49,44.2685,-89.6165,741235,8521,,,55.0,12730.672430121147,9967129.0,,1.1495679507848389,84000055.0,USA,171184.9202584349,
Wyoming,US,2021-09-06 04:31:49,42.756,-107.3025,77206,858,,,56.0,13339.922143759319,907350.0,,1.1113125922855736,84000056.0,USA,156775.09982566145,
