Province_State,Country_Region,Last_Update,Lat,Long_,Confirmed,Deaths,Recovered,Active,FIPS,Incident_Rate,Total_Test_Results,People_Hospitalized,Case_Fatality_Ratio,UID,ISO3,Testing_Rate,Hospitalization_Rate
Alabama,US,2021-09-17 04:31:58,32.3182,-86.9023,761865,12856,,,1.0,15538.165498548391,5638203.0,,1.687438063173922,84000001.0,USA,114990.62344170167,
Alaska,US,2021-09-17 04:31:58,61.3707,-152.4044,99472,468,,,2.0,13597.523050530042,2892976.0,,0.4704841563455043,84000002.0,USA,395461.1131235946,
American Samoa,US,2021-09-17 04:31:58,-14.270999999999999,-170.132,0,0,,,60.0,0.0,2140.0,,,16.0,ASM,3846.084721698028,
Arizona,US,2021-09-17 04:31:58,33.7298,-111.4312,1058774,19360,,,4.0,14546.16246242298,12267278.0,,1.8285299790134628,84000004.0,USA,168536.26813626633,
Arkansas,US,2021-09-17 04:31:58,34.9697,-92.3731,480934,7395,,,5.0,15936.555190463001,3783946.0,,1.5376330224105594,84000005.0,USA,125387.40090476387,
California,US,2021-09-17 04:31:58,36.1162,-119.6816,4639289,67406,,,6.0,11669.419359168933,87498916.0,,1.4675828540829916,84000006.0,USA,221447.7175834931,
Colorado,US,2021-09-17 04:31:58,39.0598,-105.3111,646605,7349,,,8.0,11228.245226035713,10648309.0,,1.1365516814747798,84000008.0,USA,184907.05251985847,
Connecticut,US,2021-09-17 04:31:58,41.5978,-72.7554,382798,8447,,,9.0,10736.80744355223,9742528.0,,2.2066468476846794,84000009.0,USA,273260.6940198643,
Delaware,US,2021-09-17 04:31:58,39.3185,-75.5071,126604,1913,,,10.0,13001.507552137893,2129873.0,,1.5110107105620676,84000010.0,USA,218725.78982176376,
Diamond Princess,US,2021-09-17 04:31:58,,,49,0,,,88888.0,,,,0.0,84088888.0,USA,,
District of Columbia,US,2021-09-17 04:31:58,38.8974,-77.0268,58649,1167,,,11.0,8310.17826451047,1943656.0,,1.9898037477194843,84000011.0,USA,275403.2949391356,
Florida,US,2021-09-17 04:31:58,27.7663,-81.6868,3473873,50811,,,12.0,16174.297133818147,38902789.0,,1.4626614156591218,84000012.0,USA,181130.76345054415,
Georgia,US,2021-09-17 04:31:58,33.0406,-83.6431,1519522,24460,,,13.0,14311.589544845296,11070653.0,,1.6097167398695116,84000013.0,USA,104268.738280466,
Grand Princess,US,2021-09-17 04:31:58,,,103,3,,,99999.0,,,,2.912621359223301,84099999.0,USA,,
Guam,US,2021-09-17 04:31:58,13.4443,144.7937,13145,174,,,66.0,8004.067491125196,213250.0,,1.3236972232788131,316.0,GUM,129849.17401920489,
Hawaii,US,2021-09-17 04:31:58,21.0943,-157.4983,73856,679,,,15.0,5216.290738145821,2252032.0,,0.9193565857885616,84000015.0,USA,159056.18586990915,
Idaho,US,2021-09-17 04:31:58,44.2405,-114.4788,239533,2600,,,16.0,13403.709434183984,920324.0,,1.0854454292310454,84000016.0,USA,51499.190012674415,
Illinois,US,2021-09-17 04:31:58,40.3495,-88.9861,1586741,26925,,,17.0,12521.807244594129,30193211.0,,1.6968742850912657,84000017.0,USA,238270.4979813083,
Indiana,US,2021-09-17 04:31:58,39.8494,-86.2583,922320,15046,,,18.0,13700.089079098583,12960663.0,,1.6313210165669183,84000018.0,USA,192516.95466234832,
Iowa,US,2021-09-17 04:31:58,42.0115,-93.2105,429078,6401,,,19.0,13599.63487339425,1600621.0,,1.4918033551009369,84000019.0,USA,50731.711182319246,
Kansas,US,2021-09-17 04:31:58,38.5266,-96.7265,394633,5805,,,20.0,13545.845041076931,1691100.0,,1.4709869676382867,84000020.0,USA,58047.2959660373,
Kentucky,US,2021-09-17 04:31:58,37.6681,-84.6701,644563,8206,,,21.0,14427.264484218069,6574682.0,,1.2731106191326529,84000021.0,USA,147161.21793157194,
Louisiana,US,2021-09-17 04:31:58,31.1695,-91.8678,723458,13366,,,22.0,15562.272709868408,8836446.0,,1.8475156816290648,84000022.0,USA,190080.39504439206,
Maine,US,2021-09-17 04:31:58,44.6939,-69.3819,82607,979,,,23.0,6145.384805372962,2594116.0,,1.1851295895021003,84000023.0,USA,192984.14238230282,
Maryland,US,2021-09-17 04:31:58,39.0639,-76.8021,515259,10238,,,24.0,8522.763361606965,12458073.0,,1.9869618968324667,84000024.0,USA,206065.70311362823,
Massachusetts,US,2021-09-17 04:31:58,42.2302,-71.5301,788775,18423,,,25.0,11443.955845938697,27327406.0,,2.33564704763716,84000025.0,USA,396480.1466172738,
Michigan,US,2021-09-17 04:31:58,43.3266,-84.5361,1102957,21920,,,26.0,11044.085241232551,15708853.0,,1.9873848209857683,84000026.0,USA,157295.26316437693,
Minnesota,US,2021-09-17 04:31:58,45.6945,-93.9002,678978,8063,,,27.0,12039.402570947894,10743629.0,,1.1875200669241124,84000027.0,USA,190502.30582420985,
Mississippi,US,2021-09-17 04:31:58,32.7416,-89.6787,471092,9165,,,28.0,15828.911791714729,2384948.0,,1.945479863805796,84000028.0,USA,80135.36956651029,
Missouri,US,2021-09-17 04:31:58,38.4561,-92.2884,800584,11515,,,29.0,13044.291517554258,6805565.0,,1.4383250227334046,84000029.0,USA,110886.27027477961,
Montana,US,2021-09-17 04:31:58,46.9219,-110.4544,138493,1865,,,30.0,12958.069870450176,1730817.0,,1.3466384582614284,84000030.0,USA,161943.54674216724,
Nebraska,US,2021-09-17 04:31:58,41.1254,-98.2681,256906,2368,,,31.0,13280.859053519216,3541597.0,,0.9217379119210918,84000031.0,USA,183084.2821162857,
Nevada,US,2021-09-17 04:31:58,38.3135,-117.0554,408733,6821,,,32.0,13269.879837254995,4212200.0,,1.6688155837673984,84000032.0,USA,136752.81381852087,
New Hampshire,US,2021-09-17 04:31:58,43.4525,-71.5639,113903,1452,,,33.0,8377.000700884231,2330037.0,,1.274768882294584,84000033.0,USA,171362.66456622028,
New Jersey,US,2021-09-17 04:31:58,40.2989,-74.521,1126322,27148,,,34.0,12680.678976693811,15353533.0,,2.410323158031185,84000034.0,USA,172857.5159954921,
New Mexico,US,2021-09-17 04:31:58,34.8405,-106.2485,243962,4662,,,35.0,11634.806653284555,4352315.0,,1.9109533451931042,84000035.0,USA,207566.5206843285,
New York,US,2021-09-17 04:31:58,42.1657,-74.9481,2356680,54809,,,36.0,12114.388722969536,67522395.0,,2.3228440008825966,84000036.0,USA,347095.29530351795,
North Carolina,US,2021-09-17 04:31:58,35.6301,-79.8064,1322587,15520,,,37.0,12610.37764380987,14915008.0,,1.1734577763126357,84000037.0,USA,142209.08223084407,
North Dakota,US,2021-09-17 04:31:58,47.5289,-99.78399999999999,124620,1616,,,38.0,16353.000149594129,1713491.0,,1.2967420959717542,84000038.0,USA,224849.29047767766,
Northern Mariana Islands,US,2021-09-17 04:31:58,15.0979,145.6739,258,2,,,69.0,467.86595096474684,17542.0,,0.7751937984496124,580.0,MNP,31811.25779776585,
Ohio,US,2021-09-17 04:31:58,40.3888,-82.7649,1327614,22399,,,39.0,11357.70931893816,15558068.0,,1.6017456881292302,84000039.0,USA,133098.9383271595,
Oklahoma,US,2021-09-17 04:31:58,35.5653,-96.9289,589950,8440,,,40.0,14909.131252162324,4432347.0,,1.4306297143825748,84000040.0,USA,112013.63366069652,
Oregon,US,2021-09-17 04:31:58,44.571999999999996,-122.0709,307768,3547,,,41.0,7296.993624780302,6627408.0,,1.1524914870941751,84000041.0,USA,157131.84582158632,
Pennsylvania,US,2021-09-17 04:31:58,40.5908,-77.2098,1365049,28768,,,42.0,10662.788415143928,16556215.0,,2.107470134771719,84000042.0,USA,129325.33374306133,
Puerto Rico,US,2021-09-17 04:31:58,18.2208,-66.5901,178305,3055,,,72.0,5583.033315026424,2799826.0,,1.7133563276408401,630.0,PRI,87667.32191625121,
Rhode Island,US,2021-09-17 04:31:58,41.6809,-71.5118,167975,2810,,,44.0,15856.256743451953,5062822.0,,1.6728679863074862,84000044.0,USA,477912.8172549301,
South Carolina,US,2021-09-17 04:31:58,33.8569,-80.945,814254,11532,,,45.0,15814.706351916226,8382908.0,,1.4162656861372496,84000045.0,USA,162815.56909162173,
South Dakota,US,2021-09-17 04:31:58,44.2998,-99.4388,139412,2097,,,46.0,15758.840411955342,917669.0,,1.5041746764984365,84000046.0,USA,103731.38124407256,
Tennessee,US,2021-09-17 04:31:58,35.7478,-86.6923,1171722,14278,,,47.0,17157.594754504717,9583432.0,,1.2185484270159646,84000047.0,USA,140330.7632811816,
Texas,US,2021-09-17 04:31:58,31.0545,-97.5635,3908248,61205,,,48.0,13478.631671857116,31534744.0,,1.5660469857593482,84000048.0,USA,108755.94364592682,
Utah,US,2021-09-17 04:31:58,40.15,-111.8624,489236,2779,,,49.0,15260.212392052546,4081967.0,,0.5680285179340849,84000049.0,USA,127324.4066204236,
Vermont,US,2021-09-17 04:31:58,44.0459,-72.7107,30922,294,,,50.0,4955.536075155171,1978672.0,,0.9507793803764312,84000050.0,USA,317100.46170685696,
Virgin Islands,US,2021-09-17 04:31:58,18.3358,-64.8963,6374,67,,,78.0,5942.12626319126,174984.0,,1.0511452776906178,850.0,VIR,163127.86665175075,
Virginia,US,2021-09-17 04:31:58,37.7693,-78.17,822985,12207,,,51.0,9641.885865405491,8917938.0,,1.4832591116484504,84000051.0,USA,104480.32509798174,
Washington,US,2021-09-17 04:31:58,47.4009,-121.4905,616871,7145,,,53.0,8100.849217447968,9842443.0,,1.1582648560233826,84000053.0,USA,129252.54497994915,
West Virginia,US,2021-09-17 04:31:58,38.4912,-80.9545,217119,3313,,,54.0,12115.02181461677,3673851.0,,1.525891331481814,84000054.0,USA,204997.19052064366,
Wisconsin,US,2021-09-17 04:31:58,44.2685,-89.6165,768318,8682,,,55.0,13195.821541300425,10253870.0,,1.1300008590193122,84000055.0,USA,176109.68196462168,
Wyoming,US,2021-09-17 04:31:58,42.756,-107.3025,83643,918,,,56.0,14452.129470124868,940139.0,,1.0975216096983609,84000056.0,USA,162440.49768556515,
