Province_State,Country_Region,Last_Update,Lat,Long_,Confirmed,Deaths,Recovered,Active,FIPS,Incident_Rate,Total_Test_Results,People_Hospitalized,Case_Fatality_Ratio,UID,ISO3,Testing_Rate,Hospitalization_Rate
Alabama,US,2021-09-21 04:31:47,32.3182,-86.9023,772311,13210,,,1.0,15751.210692641618,5662826.0,,1.7104508416946025,84000001.0,USA,115492.8072263233,
Alaska,US,2021-09-21 04:31:47,61.3707,-152.4044,102471,474,,,2.0,14007.477325386682,2921249.0,,0.4625698978247504,84000002.0,USA,399325.94713927375,
American Samoa,US,2021-09-21 04:31:47,-14.270999999999999,-170.132,0,0,,,60.0,0.0,2140.0,,,16.0,ASM,3846.084721698028,
Arizona,US,2021-09-21 04:31:47,33.7298,-111.4312,1068823,19513,,,4.0,14684.222507895283,12421897.0,,1.8256530781991032,84000004.0,USA,170660.52987085498,
Arkansas,US,2021-09-21 04:31:47,34.9697,-92.3731,485452,7482,,,5.0,16086.266702542644,3824303.0,,1.5412440364855846,84000005.0,USA,126724.69782663154,
California,US,2021-09-21 07:31:51,36.1162,-119.6816,4672322,67685,,,6.0,11754.757508834673,88970703.0,,1.4644855945636257,84000006.0,USA,225172.60798006735,
Colorado,US,2021-09-21 04:31:47,39.0598,-105.3111,653465,7405,,,8.0,11347.368589218191,10729535.0,,1.133189994873482,84000008.0,USA,186317.53565365734,
Connecticut,US,2021-09-21 04:31:47,41.5978,-72.7554,385788,8462,,,9.0,10820.67165981308,9788552.0,,2.1934326624985743,84000009.0,USA,274551.5858891584,
Delaware,US,2021-09-21 04:31:47,39.3185,-75.5071,128692,1920,,,10.0,13215.933224066612,2157162.0,,1.4919342305660026,84000010.0,USA,221528.2142284989,
Diamond Princess,US,2021-09-21 04:31:47,,,49,0,,,88888.0,,,,0.0,84088888.0,USA,,
District of Columbia,US,2021-09-21 04:31:47,38.8974,-77.0268,59563,1170,,,11.0,8439.686064025596,1961260.0,,1.9643067004684118,84000011.0,USA,277897.6661674335,
Florida,US,2021-09-21 04:31:47,27.7663,-81.6868,3528698,51884,,,12.0,16429.561457056672,39043661.0,,1.470344019238824,84000012.0,USA,181786.66122971894,
Georgia,US,2021-09-21 04:31:47,33.0406,-83.6431,1536467,24772,,,13.0,14471.185710506212,11139691.0,,1.612270227736749,84000013.0,USA,104918.97139258744,
Grand Princess,US,2021-09-21 04:31:47,,,103,3,,,99999.0,,,,2.912621359223301,84099999.0,USA,,
Guam,US,2021-09-21 04:31:47,13.4443,144.7937,13660,181,,,66.0,8317.654007513898,213412.0,,1.3250366032210834,316.0,GUM,129947.8167680495,
Hawaii,US,2021-09-21 04:31:47,21.0943,-157.4983,75911,714,,,15.0,5361.4309768114645,2287781.0,,0.9405751472118664,84000015.0,USA,161581.0609998644,
Idaho,US,2021-09-21 04:31:47,44.2405,-114.4788,243565,2649,,,16.0,13629.330774202395,931666.0,,1.0875946872498101,84000016.0,USA,52133.861946823425,
Illinois,US,2021-09-21 04:31:47,40.3495,-88.9861,1598757,27072,,,17.0,12616.6318163743,30395751.0,,1.6933154944747701,84000017.0,USA,239868.8475792075,
Indiana,US,2021-09-21 04:31:47,39.8494,-86.2583,934586,15157,,,18.0,13882.287548875043,13064803.0,,1.6217876150509425,84000018.0,USA,194063.8443282965,
Iowa,US,2021-09-21 04:31:47,42.0115,-93.2105,434239,6401,,,19.0,13763.21286057045,1620048.0,,1.4740730335138024,84000019.0,USA,51347.45029428824,
Kansas,US,2021-09-21 04:31:47,38.5266,-96.7265,400293,5919,,,20.0,13740.125506553704,1701842.0,,1.4786668765129545,84000020.0,USA,58416.01694839622,
Kentucky,US,2021-09-21 04:31:47,37.6681,-84.6701,658231,8339,,,21.0,14733.19555840367,6632451.0,,1.2668804720531242,84000021.0,USA,148454.2624314716,
Louisiana,US,2021-09-21 04:31:47,31.1695,-91.8678,728831,13473,,,22.0,15677.851072772852,8881254.0,,1.8485766933623844,84000022.0,USA,191044.25793012124,
Maine,US,2021-09-21 04:31:47,44.6939,-69.3819,83910,984,,,23.0,6242.3189199322715,2594738.0,,1.1726850196639256,84000023.0,USA,193030.41484527735,
Maryland,US,2021-09-21 04:31:47,39.0639,-76.8021,520236,10263,,,24.0,8605.086607296449,12616849.0,,1.9727585172883075,84000024.0,USA,208691.9750962671,
Massachusetts,US,2021-09-21 04:31:47,42.2302,-71.5301,795543,18455,,,25.0,11542.149491991517,27559376.0,,2.319799181188195,84000025.0,USA,399845.6874084785,
Michigan,US,2021-09-21 04:31:47,43.3266,-84.5361,1117846,22034,,,26.0,11193.1711848883,15798486.0,,1.9711122999053536,84000026.0,USA,158192.7727612401,
Minnesota,US,2021-09-21 04:31:47,45.6945,-93.9002,684070,8086,,,27.0,12129.692150126108,10808368.0,,1.182042773400383,84000027.0,USA,191650.2353345041,
Mississippi,US,2021-09-21 04:31:47,32.7416,-89.6787,476100,9270,,,28.0,15997.182936741408,2387492.0,,1.947069943289225,84000028.0,USA,80220.84915775388,
Missouri,US,2021-09-21 04:31:47,38.4561,-92.2884,807762,11549,,,29.0,13161.246046389462,6886663.0,,1.4297528232325858,84000029.0,USA,112207.63811811725,
Montana,US,2021-09-21 04:31:47,46.9219,-110.4544,141339,1887,,,30.0,13224.355291744405,1740325.0,,1.3350879799630675,84000030.0,USA,162833.16086221836,
Nebraska,US,2021-09-21 04:31:47,41.1254,-98.2681,257787,2371,,,31.0,13326.402703049202,3564647.0,,0.9197515778530336,84000031.0,USA,184275.86114201348,
Nevada,US,2021-09-21 04:31:47,38.3135,-117.0554,412317,6880,,,32.0,13386.237580174511,4236823.0,,1.6686190479655216,84000032.0,USA,137552.22138099498,
New Hampshire,US,2021-09-21 04:31:47,43.4525,-71.5639,115401,1458,,,33.0,8487.171170932646,2347862.0,,1.263420594275613,84000033.0,USA,172673.60490574836,
New Jersey,US,2021-09-21 04:31:47,40.2989,-74.521,1134851,27202,,,34.0,12776.702592491267,15390015.0,,2.3969666502474776,84000034.0,USA,173268.2480334242,
New Mexico,US,2021-09-21 04:31:47,34.8405,-106.2485,246229,4689,,,35.0,11742.922288846634,4386341.0,,1.9043248358235627,84000035.0,USA,209189.25673004333,
New York,US,2021-09-21 04:31:47,42.1657,-74.9481,2377102,54927,,,36.0,12219.366932357525,68338422.0,,2.310670724268458,84000036.0,USA,351290.038877715,
North Carolina,US,2021-09-21 04:31:47,35.6301,-79.8064,1346316,15776,,,37.0,12836.62487829045,15042709.0,,1.1717902780625054,84000037.0,USA,143426.6640122257,
North Dakota,US,2021-09-21 04:31:47,47.5289,-99.78399999999999,126018,1618,,,38.0,16536.44979017455,1729147.0,,1.283943563617896,84000038.0,USA,226903.71649550824,
Northern Mariana Islands,US,2021-09-21 04:31:47,15.0979,145.6739,263,2,,,69.0,476.93312055708685,17542.0,,0.7604562737642585,580.0,MNP,31811.25779776585,
Ohio,US,2021-09-21 04:31:47,40.3888,-82.7649,1352104,22702,,,39.0,11567.220744112035,15713521.0,,1.5879695644713718,84000039.0,USA,134428.8354107673,
Oklahoma,US,2021-09-21 04:31:47,35.5653,-96.9289,598072,8440,,,40.0,15114.389263909186,4480287.0,,1.4112013269305368,84000040.0,USA,113225.16642148756,
Oregon,US,2021-09-21 04:31:47,44.571999999999996,-122.0709,313161,3594,,,41.0,7424.858401555147,6676294.0,,1.1476524854627492,84000041.0,USA,158290.90339203225,
Pennsylvania,US,2021-09-21 04:31:47,40.5908,-77.2098,1382933,28864,,,42.0,10802.4854575332,16782057.0,,2.087158235431507,84000042.0,USA,131089.45024089614,
Puerto Rico,US,2021-09-21 04:31:47,18.2208,-66.5901,179225,3076,,,72.0,5611.840082362305,2817154.0,,1.716278420979216,630.0,PRI,88209.89111668181,
Rhode Island,US,2021-09-21 04:31:47,41.6809,-71.5118,169350,2815,,,44.0,15986.051969064367,5099691.0,,1.6622379687038678,84000044.0,USA,481393.1228353696,
South Carolina,US,2021-09-21 04:31:47,33.8569,-80.945,830260,11721,,,45.0,16125.580096311429,8458158.0,,1.4117264471370414,84000045.0,USA,164277.0990969784,
South Dakota,US,2021-09-21 04:31:47,44.2998,-99.4388,140402,2106,,,46.0,15870.747937906019,923939.0,,1.4999786327830087,84000046.0,USA,104440.12890842684,
Tennessee,US,2021-09-21 04:31:47,35.7478,-86.6923,1190689,14441,,,47.0,17435.329660658816,9628785.0,,1.21282719501062,84000047.0,USA,140994.86995059723,
Texas,US,2021-09-21 04:31:47,31.0545,-97.5635,3949052,62071,,,48.0,13619.355107713402,31955259.0,,1.5717949523075412,84000048.0,USA,110206.20135666855,
Utah,US,2021-09-21 04:31:47,40.15,-111.8624,494378,2804,,,49.0,15420.601268014116,4104373.0,,0.5671773420338284,84000049.0,USA,128023.29288156613,
Vermont,US,2021-09-21 04:31:47,44.0459,-72.7107,31764,298,,,50.0,5090.474351310681,2018829.0,,0.9381689963480668,84000050.0,USA,323535.99182036857,
Virgin Islands,US,2021-09-21 04:31:47,18.3358,-64.8963,6489,67,,,78.0,6049.334377447141,177762.0,,1.032516566497149,850.0,VIR,165717.64179438414,
Virginia,US,2021-09-21 04:31:47,37.7693,-78.17,836140,12312,,,51.0,9796.00654629203,8979149.0,,1.4724806850527423,84000051.0,USA,105197.45782300994,
Washington,US,2021-09-21 04:31:47,47.4009,-121.4905,628488,7271,,,53.0,8253.405530451972,9842443.0,,1.1569035526533522,84000053.0,USA,129252.54497994915,
West Virginia,US,2021-09-21 04:31:47,38.4912,-80.9545,224435,3424,,,54.0,12523.247255944963,3754106.0,,1.5256087508632792,84000054.0,USA,209475.33879754285,
Wisconsin,US,2021-09-21 04:31:47,44.2685,-89.6165,779767,8713,,,55.0,13392.457518625371,10344635.0,,1.1173850650258346,84000055.0,USA,177668.56610139337,
Wyoming,US,2021-09-21 04:31:47,42.756,-107.3025,85499,918,,,56.0,14772.815627921123,949047.0,,1.073696768383256,84000056.0,USA,163979.653016195,
