Province_State,Country_Region,Last_Update,Lat,Long_,Confirmed,Deaths,Recovered,Active,FIPS,Incident_Rate,People_Tested,People_Hospitalized,Mortality_Rate,UID,ISO3,Testing_Rate,Hospitalization_Rate
Alabama,US,2020-10-18 04:30:24,32.3182,-86.9023,172137,2788,74238.0,94636.0,1.0,3501.030452654754,2097961.0,,1.6241218207873611,84000001,USA,42787.71859515805,
Alaska,US,2020-10-18 04:30:24,61.3707,-152.4044,10811,67,6448.0,4245.0,2.0,1470.859619025487,530500.0,,0.6226765799256505,84000002,USA,72517.75352165622,
American Samoa,US,2020-10-18 04:30:24,-14.271,-170.132,0,0,,0.0,60.0,0.0,1616.0,,,16,ASM,2904.3331356373897,
Arizona,US,2020-10-18 04:30:24,33.7298,-111.4312,230459,5824,38193.0,186442.0,4.0,3166.2036042890527,2514031.0,,2.527130639289418,84000004,USA,22266.327980604277,
Arkansas,US,2020-10-18 04:30:24,34.9697,-92.3731,98422,1684,87920.0,8818.0,5.0,3261.378141191409,1207642.0,,1.7109995732661396,84000005,USA,40017.24432733206,
California,US,2020-10-18 04:30:24,36.1162,-119.6816,878409,16913,,856658.0,6.0,2210.996835080628,16756711.0,,1.940902961719936,84000006,USA,42408.93001641543,
Colorado,US,2020-10-18 04:30:24,39.0598,-105.3111,84369,2176,7087.0,75083.0,8.0,1464.6616896485616,1646557.0,,2.5798496668484576,84000008,USA,28592.333456508517,
Connecticut,US,2020-10-18 04:30:24,41.5978,-72.7554,62830,4542,9651.0,48637.0,9.0,1762.270470792393,1967633.0,,7.229030717809963,84000009,USA,55188.62857323969,
Delaware,US,2020-10-18 04:30:24,39.3185,-75.5071,22942,686,11928.0,10350.0,10.0,2356.0123397455645,324469.0,,2.89425507802284,84000010,USA,33321.112713141985,
Diamond Princess,US,2020-10-18 04:30:24,,,49,0,,49.0,88888.0,,,,0.0,84088888,USA,,
District of Columbia,US,2020-10-18 04:30:24,38.8974,-77.0268,16334,641,12793.0,2900.0,11.0,2314.420565951917,462968.0,,3.924329619199217,84000011,USA,65599.52617715362,
Florida,US,2020-10-18 04:30:24,27.7663,-81.6868,752481,15917,,736564.0,12.0,3503.539502322801,10817601.0,,2.1152693556382154,84000012,USA,50366.57726090975,
Georgia,US,2020-10-18 04:30:24,33.0406,-83.6431,339384,7607,,331777.0,13.0,3196.481858168408,3280668.0,,2.2414138556914884,84000013,USA,30898.910215784,
Grand Princess,US,2020-10-18 04:30:24,,,103,3,,100.0,99999.0,,,,2.9126213592233015,84099999,USA,,
Guam,US,2020-10-18 04:30:24,13.4443,144.7937,3538,63,2297.0,1178.0,66.0,2154.308922297524,58680.0,,1.7806670435274166,316,GUM,35730.59569259996,
Hawaii,US,2020-10-18 04:30:24,21.0943,-157.4983,13949,186,10947.0,2816.0,15.0,985.1879265922344,469684.0,,1.3334289196358162,84000015,USA,33172.77268001627,
Idaho,US,2020-10-18 04:30:24,44.2405,-114.4788,52582,529,25457.0,26596.0,16.0,2942.366394059533,348518.0,,1.0060476969305086,84000016,USA,19502.256493188557,
Illinois,US,2020-10-18 04:30:24,40.3495,-88.9861,343386,9452,,333934.0,17.0,2709.8394145561238,6699844.0,,2.752587467165231,84000017,USA,52871.99053711381,
Indiana,US,2020-10-18 04:30:24,39.8494,-86.2583,145977,4025,106319.0,35740.0,18.0,2168.334096083327,2485506.0,,2.683984463305863,84000018,USA,36919.565450856535,
Iowa,US,2020-10-18 04:30:24,42.0115,-93.2105,106698,1528,81502.0,23668.0,19.0,3381.795015641492,827884.0,,1.4320793266977825,84000019,USA,26239.79816612627,
Kansas,US,2020-10-18 04:30:24,38.5266,-96.7265,72512,861,2379.0,66785.0,20.0,2403.551419448779,589189.0,,1.2267397854990505,84000020,USA,20224.012928232252,
Kentucky,US,2020-10-18 04:30:24,37.6681,-84.6701,86797,1312,17155.0,68330.0,21.0,1942.7787127661315,1674648.0,,1.5115729806329712,84000021,USA,37483.674387091436,
Louisiana,US,2020-10-18 04:30:24,31.1695,-91.8678,174638,5727,161792.0,7119.0,22.0,3756.6302142017907,2565652.0,,3.279355008646457,84000022,USA,55189.62552438332,
Maine,US,2020-10-18 04:30:24,44.6939,-69.3819,5912,146,5112.0,654.0,23.0,439.81157734047895,533689.0,,2.4695534506089314,84000023,USA,39702.74034155327,
Maryland,US,2020-10-18 04:30:24,39.0639,-76.8021,135127,4036,7880.0,123211.0,24.0,2235.1001045374546,3049634.0,,2.9868198065523544,84000024,USA,50443.19249447539,
Massachusetts,US,2020-10-18 04:30:24,42.2302,-71.5301,142930,9723,118892.0,14315.0,25.0,2073.7023980983395,5088797.0,,6.802630658364234,84000025,USA,73830.90003733043,
Michigan,US,2020-10-18 04:30:24,43.3266,-84.5361,161105,7340,109539.0,44226.0,26.0,1613.170189580165,4272743.0,,4.55603488408181,84000026,USA,42783.66056508069,
Minnesota,US,2020-10-18 04:30:24,45.6945,-93.9002,121090,2270,106774.0,12046.0,27.0,2147.1259117616187,2458271.0,,1.8746386984887276,84000027,USA,43589.209366852316,
Mississippi,US,2020-10-18 04:30:24,32.7416,-89.6787,110006,3171,94165.0,12670.0,28.0,3696.2531109833553,839550.0,,2.8825700416340925,84000028,USA,28209.273124430263,
Missouri,US,2020-10-18 04:30:24,38.4561,-92.2884,162266,2595,,154527.0,29.0,2559.834510482241,2266988.0,,1.6428189525676604,84000029,USA,36937.10133951877,
Montana,US,2020-10-18 04:30:24,46.9219,-110.4544,22225,239,13395.0,8591.0,30.0,2079.4776838595108,428128.0,,1.0753655793025871,84000030,USA,40057.71076874712,
Nebraska,US,2020-10-18 04:30:24,41.1254,-98.2681,57332,547,38083.0,18702.0,31.0,2963.8008114110357,535347.0,,0.9540919556268752,84000031,USA,27674.9785981034,
Nevada,US,2020-10-18 04:30:24,38.3135,-117.0554,89652,1707,2326.0,85619.0,32.0,2910.6317991686133,749756.0,,1.9040289117922635,84000032,USA,24341.49439184249,
New Hampshire,US,2020-10-18 04:30:24,43.4525,-71.5639,9625,466,8222.0,937.0,33.0,707.8710108250945,523341.0,,4.841558441558441,84000033,USA,38489.134823502936,
New Jersey,US,2020-10-18 04:30:24,40.2989,-74.521,226378,16204,35812.0,166722.0,34.0,2462.6584209524904,4135796.0,,7.40794923607238,84000034,USA,46562.79588705038,
New Mexico,US,2020-10-18 04:30:24,34.8405,-106.2485,36343,929,19613.0,15801.0,35.0,1733.2362343328907,1035851.0,,2.556200643865393,84000035,USA,49400.833353602044,
New York,US,2020-10-18 04:30:24,42.1657,-74.9481,486207,33376,78235.0,371309.0,36.0,2482.2756101055224,12771403.0,,6.905699215765048,84000036,USA,65650.72070866614,
North Carolina,US,2020-10-18 04:30:24,35.6301,-79.8064,243725,3929,206471.0,33325.0,37.0,2323.8276886417,3582572.0,,1.6120627756692991,84000037,USA,34158.49834917417,
North Dakota,US,2020-10-18 04:30:24,47.5289,-99.784,31261,399,25492.0,5370.0,38.0,4102.159666798764,726187.0,,1.27635072454496,84000038,USA,95292.37778553453,
Northern Mariana Islands,US,2020-10-18 04:30:24,15.0979,145.6739,86,2,29.0,55.0,69.0,155.95531698824894,15542.0,,2.3255813953488373,580,MNP,28184.38996082983,
Ohio,US,2020-10-18 04:30:24,40.3888,-82.7649,180225,4835,149351.0,25807.0,39.0,1541.8210127383634,3854399.0,,2.8114856429463173,84000039,USA,32974.30084437638,
Oklahoma,US,2020-10-18 04:30:24,35.5653,-96.9289,106468,1162,90845.0,14461.0,40.0,2690.6439294096413,1434035.0,,1.0914077469286547,84000040,USA,36240.72554486753,
Oregon,US,2020-10-18 04:30:24,44.572,-122.0709,39315,619,5870.0,32826.0,41.0,932.1349339705156,781643.0,,1.5744626732799183,84000041,USA,18532.2840186574,
Pennsylvania,US,2020-10-18 04:30:24,40.5908,-77.2098,185770,8447,144754.0,32472.0,42.0,1450.3058860619235,3621788.0,,4.546825516513347,84000042,USA,17972.152608473574,
Puerto Rico,US,2020-10-18 04:30:24,18.2208,-66.5901,56650,761,25645.0,30244.0,72.0,1931.2008421603812,814104.0,,1.3433362753751104,630,PRI,25490.983168706833,
Rhode Island,US,2020-10-18 04:30:24,41.6809,-71.5118,27691,1174,2501.0,24038.0,44.0,2613.934249042584,935623.0,,4.160196453721426,84000044,USA,88319.56245321472,
South Carolina,US,2020-10-18 04:30:24,33.8569,-80.945,163214,3637,81703.0,77874.0,45.0,3169.9954590602624,1585051.0,,2.2283627629982723,84000045,USA,30785.37669794826,
South Dakota,US,2020-10-18 04:30:24,44.2998,-99.4388,32611,315,24528.0,7768.0,46.0,3686.2791199773023,229204.0,,0.9659317408236484,84000046,USA,25908.73997777675,
Tennessee,US,2020-10-18 04:30:24,35.7478,-86.6923,226139,2903,203586.0,19650.0,47.0,3311.3667919429204,3305133.0,,1.2837237274419715,84000047,USA,48397.258585006035,
Texas,US,2020-10-18 04:30:24,31.0545,-97.5635,856684,17723,723204.0,107798.0,48.0,2926.0776728942988,7274236.0,,2.05553237581355,84000048,USA,25087.13565212935,
Utah,US,2020-10-18 04:30:24,40.15,-111.8624,93297,540,69110.0,23647.0,49.0,2910.1129833890527,966451.0,,0.5787967458760732,84000049,USA,30145.466659263784,
Vermont,US,2020-10-18 04:30:24,44.0459,-72.7107,1926,58,1687.0,181.0,50.0,308.65928726307675,177333.0,,3.011422637590862,84000050,USA,28419.250980385874,
Virgin Islands,US,2020-10-18 04:30:24,18.3358,-64.8963,1335,21,1294.0,20.0,78.0,1244.546369840027,22504.0,,1.5730337078651686,850,VIR,20979.229593168508,
Virginia,US,2020-10-18 04:30:24,37.7693,-78.17,165238,3422,18996.0,142380.0,51.0,1930.6968914251145,2366380.0,,2.074698868290907,84000051,USA,27723.914620774667,
Washington,US,2020-10-18 04:30:24,47.4009,-121.4905,100105,2211,,95432.0,53.0,1282.631285823714,2194254.0,,2.2923897574510352,84000053,USA,28815.29655111372,
West Virginia,US,2020-10-18 04:30:24,38.4912,-80.9545,19805,401,14563.0,4841.0,54.0,1105.0990794839931,672361.0,,2.024741226962888,84000054,USA,37517.06751734093,
Wisconsin,US,2020-10-18 04:30:24,44.2685,-89.6165,166186,1574,130231.0,34381.0,55.0,2854.235874550059,1765796.0,,0.9471315273248048,84000055,USA,30327.454119703205,
Wyoming,US,2020-10-18 04:30:24,42.756,-107.3025,8816,57,6559.0,2200.0,56.0,1523.2592495321887,117570.0,,0.646551724137931,84000056,USA,20314.154941867,
