Province_State,Country_Region,Last_Update,Lat,Long_,Confirmed,Deaths,Recovered,Active,FIPS,Incident_Rate,Total_Test_Results,People_Hospitalized,Case_Fatality_Ratio,UID,ISO3,Testing_Rate,Hospitalization_Rate
Alabama,US,2021-10-18 04:32:57,32.3182,-86.9023,814025,15179,,,1.0,16601.963825554205,5918858.0,,1.8646847455544977,84000001.0,USA,120714.55594679785,
Alaska,US,2021-10-18 04:32:57,61.3707,-152.4044,127767,617,,,2.0,17465.364400002734,3197451.0,,0.4829102976511932,84000002.0,USA,437081.9293413257,
American Samoa,US,2021-10-18 04:32:57,-14.270999999999999,-170.132,3,0,,,60.0,5.3917075537822825,2140.0,,0.0,16.0,ASM,3846.084721698028,
Arizona,US,2021-10-18 04:32:57,33.7298,-111.4312,1131976,20500,,,4.0,15551.861681117705,13221102.0,,1.8109924592040816,84000004.0,USA,181640.55560890745,
Arkansas,US,2021-10-18 04:32:57,34.9697,-92.3731,506956,8200,,,5.0,16798.837830422388,4015997.0,,1.6174973764981575,84000005.0,USA,133076.80021631625,
California,US,2021-10-18 04:32:57,36.1162,-119.6816,4845277,70389,,,6.0,12179.291962388448,97293058.0,,1.4674036933206076,84000006.0,USA,246235.3434277793,
Colorado,US,2021-10-18 04:32:57,39.0598,-105.3111,704839,7864,,,8.0,12239.474079034011,11610189.0,,1.1157157875770212,84000008.0,USA,201610.0234495903,
Connecticut,US,2021-10-18 04:32:57,41.5978,-72.7554,397123,8718,,,9.0,11138.598379317007,10343140.0,,2.1952896205961383,84000009.0,USA,290106.7992562731,
Delaware,US,2021-10-18 04:32:57,39.3185,-75.5071,139874,2032,,,10.0,14364.260744903282,2306917.0,,1.4527360338590445,84000010.0,USA,236907.1972264327,
Diamond Princess,US,2021-10-18 04:32:57,,,49,0,,,88888.0,,,,0.0,84088888.0,USA,,
District of Columbia,US,2021-10-18 04:32:57,38.8974,-77.0268,62976,1183,,,11.0,8923.285757401003,2135437.0,,1.8784933943089432,84000011.0,USA,302577.4035811599,
Florida,US,2021-10-18 04:32:57,27.7663,-81.6868,3664097,57859,,,12.0,17059.977035755677,40993329.0,,1.5790793748091276,84000012.0,USA,190864.2842586256,
Georgia,US,2021-10-18 04:32:57,33.0406,-83.6431,1615699,27774,,,13.0,15217.430821019376,12062961.0,,1.719008305383614,84000013.0,USA,113614.77262420458,
Grand Princess,US,2021-10-18 04:32:57,,,103,3,,,99999.0,,,,2.912621359223301,84099999.0,USA,,
Guam,US,2021-10-18 04:32:57,13.4443,144.7937,16795,222,,,66.0,10226.573869414051,238366.0,,1.32182197082465,316.0,GUM,145142.45352526047,
Hawaii,US,2021-10-18 04:32:57,21.0943,-157.4983,82394,872,,,15.0,5819.311350178547,2462481.0,,1.0583294900114086,84000015.0,USA,173919.7469827781,
Idaho,US,2021-10-18 04:32:57,44.2405,-114.4788,277167,3256,,,16.0,15509.620523036378,990676.0,,1.1747430249632893,84000016.0,USA,55435.92426688453,
Illinois,US,2021-10-18 04:32:57,40.3495,-88.9861,1665777,27840,,,17.0,13145.52186303768,33718807.0,,1.6712921357420591,84000017.0,USA,266092.8291206133,
Indiana,US,2021-10-18 04:32:57,39.8494,-86.2583,996341,16245,,,18.0,14799.592823703448,14053792.0,,1.6304658746352905,84000018.0,USA,208754.23096010395,
Iowa,US,2021-10-18 04:32:57,42.0115,-93.2105,469519,6748,,,19.0,14881.413090676277,1690447.0,,1.4372155333436984,84000019.0,USA,53578.74785662442,
Kansas,US,2021-10-18 04:32:57,38.5266,-96.7265,424081,6169,,,20.0,14556.652664285415,1792319.0,,1.4546749323832004,84000020.0,USA,61521.655406866535,
Kentucky,US,2021-10-18 04:32:57,37.6681,-84.6701,723889,9293,,,21.0,16202.819678163554,7142407.0,,1.2837603555241204,84000021.0,USA,159868.6161677455,
Louisiana,US,2021-10-18 04:32:57,31.1695,-91.8678,751874,14321,,,22.0,16173.528016083314,9505694.0,,1.9047074376823776,84000022.0,USA,204476.5588666652,
Maine,US,2021-10-18 04:32:57,44.6939,-69.3819,97725,1095,,,23.0,7270.058591948294,2843382.0,,1.120491174213354,84000023.0,USA,211527.79472285626,
Maryland,US,2021-10-18 04:32:57,39.0639,-76.8021,550550,10708,,,24.0,9106.502494343067,13611086.0,,1.9449641267823088,84000024.0,USA,225137.38735758426,
Massachusetts,US,2021-10-18 04:32:57,42.2302,-71.5301,833311,18828,,,25.0,12090.1071787709,29885632.0,,2.2594205524708064,84000025.0,USA,433596.21316087927,
Michigan,US,2021-10-18 04:32:57,43.3266,-84.5361,1219715,22969,,,26.0,12213.201811140381,16896062.0,,1.8831448330142693,84000026.0,USA,169182.97718691675,
Minnesota,US,2021-10-18 04:32:57,45.6945,-93.9002,755401,8531,,,27.0,13394.50871971788,11684929.0,,1.1293339564019642,84000027.0,USA,207193.1111817225,
Mississippi,US,2021-10-18 04:32:57,32.7416,-89.6787,497790,9917,,,28.0,16725.977093216767,2513240.0,,1.9922055485244785,84000028.0,USA,84446.04084002515,
Missouri,US,2021-10-18 04:32:57,38.4561,-92.2884,846806,12335,,,29.0,13797.408295461875,7288321.0,,1.4566500473544115,84000029.0,USA,118752.040757138,
Montana,US,2021-10-18 04:32:57,46.9219,-110.4544,164669,2128,,,30.0,15407.222079795803,1948695.0,,1.2922893805148508,84000030.0,USA,182329.25827440308,
Nebraska,US,2021-10-18 04:32:57,41.1254,-98.2681,275694,2905,,,31.0,14252.112274142786,3810682.0,,0.8868528150775861,84000031.0,USA,196994.73947585,
Nevada,US,2021-10-18 04:32:57,38.3135,-117.0554,430665,7421,,,32.0,13981.921694875195,4423890.0,,1.7231490833942855,84000032.0,USA,143625.5176685856,
New Hampshire,US,2021-10-18 04:32:57,43.4525,-71.5639,128047,1520,,,33.0,9417.221747856716,2540312.0,,1.1870641248916414,84000033.0,USA,186827.34787024593,
New Jersey,US,2021-10-18 04:32:57,40.2989,-74.521,1181284,27725,,,34.0,13299.46781142939,15901904.0,,2.3470223925829856,84000034.0,USA,179031.34249548818,
New Mexico,US,2021-10-18 04:32:57,34.8405,-106.2485,263755,4930,,,35.0,12578.755826059252,4724385.0,,1.8691588785046729,84000035.0,USA,225310.93379574586,
New York,US,2021-10-18 04:32:57,42.1657,-74.9481,2506247,55965,,,36.0,12883.229964940609,73283669.0,,2.2330201293009035,84000036.0,USA,376710.81916570436,
North Carolina,US,2021-10-18 04:32:57,35.6301,-79.8064,1446881,17456,,,37.0,13795.474940894828,16348326.0,,1.2064572000046998,84000037.0,USA,155875.23898550012,
North Dakota,US,2021-10-18 04:32:57,47.5289,-99.78399999999999,141484,1714,,,38.0,18565.9434534198,1825164.0,,1.2114444036074752,84000038.0,USA,239503.3474966604,
Northern Mariana Islands,US,2021-10-18 04:32:57,15.0979,145.6739,289,3,,,69.0,524.0824024372552,17542.0,,1.0380622837370241,580.0,MNP,31811.25779776585,
Ohio,US,2021-10-18 04:32:57,40.3888,-82.7649,1496675,24707,,,39.0,12804.022550923508,16793290.0,,1.5585882038518717,84000039.0,USA,143666.23606607865,
Oklahoma,US,2021-10-18 04:32:57,35.5653,-96.9289,631872,9402,,,40.0,15968.577985534896,4592848.0,,1.4879595867517472,84000040.0,USA,116069.79176749085,
Oregon,US,2021-10-18 04:32:57,44.571999999999996,-122.0709,348766,4161,,,41.0,8269.031473512929,7256444.0,,1.193063544038123,84000041.0,USA,172045.90992752748,
Pennsylvania,US,2021-10-18 04:32:57,40.5908,-77.2098,1509486,30418,,,42.0,11791.027159920228,18058457.0,,2.0151230286335884,84000042.0,USA,141059.77594575347,
Puerto Rico,US,2021-10-18 04:32:57,18.2208,-66.5901,183848,3207,,,72.0,5756.594088225109,2938405.0,,1.7443757886950089,630.0,PRI,92006.46649303283,
Rhode Island,US,2021-10-18 04:32:57,41.6809,-71.5118,176405,2860,,,44.0,16652.01947211574,5517674.0,,1.6212692384002718,84000044.0,USA,520849.2666805744,
South Carolina,US,2021-10-18 04:32:57,33.8569,-80.945,883982,13232,,,45.0,17168.986275019353,9201756.0,,1.4968630582975668,84000045.0,USA,178719.5016075859,
South Dakota,US,2021-10-18 04:32:57,44.2998,-99.4388,149996,2189,,,46.0,16955.23359848258,971341.0,,1.4593722499266648,84000046.0,USA,109798.35168126928,
Tennessee,US,2021-10-18 04:32:57,35.7478,-86.6923,1263068,15821,,,47.0,18495.1796513019,10140415.0,,1.2525849756307657,84000047.0,USA,148486.6983913428,
Texas,US,2021-10-18 04:32:57,31.0545,-97.5635,4180032,69034,,,48.0,14412.42982063556,34176828.0,,1.6519219499541875,84000048.0,USA,117867.872336764,
Utah,US,2021-10-18 04:32:57,40.15,-111.8624,529147,3067,,,49.0,16505.113292189104,4356472.0,,0.5796120926699008,84000049.0,USA,135886.74586504253,
Vermont,US,2021-10-18 04:32:57,44.0459,-72.7107,37318,345,,,50.0,5980.5541443839575,2203868.0,,0.92448684281044,84000050.0,USA,353190.2004682775,
Virgin Islands,US,2021-10-18 04:32:57,18.3358,-64.8963,7074,78,,,78.0,6594.697393444457,191951.0,,1.1026293469041561,850.0,VIR,178945.25860461648,
Virginia,US,2021-10-18 04:32:57,37.7693,-78.17,902938,13391,,,51.0,10578.595162168816,9643750.0,,1.4830475625125978,84000051.0,USA,112983.75646518974,
Washington,US,2021-10-18 04:32:57,47.4009,-121.4905,695016,8234,,,53.0,9127.061929826195,9842443.0,,1.1847209272880048,84000053.0,USA,129252.54497994915,
West Virginia,US,2021-10-18 04:32:57,38.4912,-80.9545,260444,4108,,,54.0,14532.513236916391,4132681.0,,1.5773064459154367,84000054.0,USA,230599.44301444016,
Wisconsin,US,2021-10-18 04:32:57,44.2685,-89.6165,855207,9162,,,55.0,14688.135580411905,11190692.0,,1.0713195752607263,84000055.0,USA,192199.550909465,
Wyoming,US,2021-10-18 04:32:57,42.756,-107.3025,97137,1080,,,56.0,16783.66988677498,1025326.0,,1.1118317427962567,84000056.0,USA,177159.40486454638,
