Province_State,Country_Region,Last_Update,Lat,Long_,Confirmed,Deaths,Recovered,Active,FIPS,Incident_Rate,Total_Test_Results,People_Hospitalized,Case_Fatality_Ratio,UID,ISO3,Testing_Rate,Hospitalization_Rate
Alabama,US,2021-10-14 04:31:55,32.3182,-86.9023,810501,14980,,,1.0,16530.092174780268,5887715.0,,1.8482395456637315,84000001.0,USA,120079.39737130053,
Alaska,US,2021-10-14 04:31:55,61.3707,-152.4044,125803,612,,,2.0,17196.891510433397,3158543.0,,0.4864748853365977,84000002.0,USA,431763.32283044787,
American Samoa,US,2021-10-14 04:31:55,-14.270999999999999,-170.132,3,0,,,60.0,5.3917075537822825,2140.0,,0.0,16.0,ASM,3846.084721698028,
Arizona,US,2021-10-14 04:31:55,33.7298,-111.4312,1124709,20447,,,4.0,15452.02265728974,13105126.0,,1.8179813622901568,84000004.0,USA,180047.1978784173,
Arkansas,US,2021-10-14 04:31:55,34.9697,-92.3731,504516,8166,,,5.0,16717.984335629484,3989989.0,,1.6185809766191757,84000005.0,USA,132214.98148985155,
California,US,2021-10-14 04:31:55,36.1162,-119.6816,4822567,70019,,,6.0,12140.607730423064,96482901.0,,1.4654919383351006,84000006.0,USA,244184.9475287685,
Colorado,US,2021-10-14 04:31:55,39.0598,-105.3111,698810,7828,,,8.0,12134.780965823056,11496475.0,,1.120190037349208,84000008.0,USA,199635.38873808415,
Connecticut,US,2021-10-14 04:31:55,41.5978,-72.7554,395721,8705,,,9.0,11099.274756842857,10272478.0,,2.1997821697610185,84000009.0,USA,288124.8550256964,
Delaware,US,2021-10-14 04:31:55,39.3185,-75.5071,138444,2005,,,10.0,14217.40791403256,2286380.0,,1.448238999162116,84000010.0,USA,234798.16464769692,
Diamond Princess,US,2021-10-14 04:31:55,,,49,0,,,88888.0,,,,0.0,84088888.0,USA,,
District of Columbia,US,2021-10-14 04:31:55,38.8974,-77.0268,62750,1183,,,11.0,8891.263041109516,2109482.0,,1.8852589641434263,84000011.0,USA,298899.7504778611,
Florida,US,2021-10-14 04:31:55,27.7663,-81.6868,3645290,57303,,,12.0,16972.411944517247,40712230.0,,1.5719736975658998,84000012.0,USA,189555.4918099612,
Georgia,US,2021-10-14 04:31:55,33.0406,-83.6431,1611692,27427,,,13.0,15179.690966442613,11951478.0,,1.7017519476426015,84000013.0,USA,112564.77207322342,
Grand Princess,US,2021-10-14 04:31:55,,,103,3,,,99999.0,,,,2.912621359223301,84099999.0,USA,,
Guam,US,2021-10-14 04:31:55,13.4443,144.7937,16595,219,,,66.0,10104.792698000962,237141.0,,1.3196746007833684,316.0,GUM,144396.5438503553,
Hawaii,US,2021-10-14 04:31:55,21.0943,-157.4983,81790,851,,,15.0,5776.65212674592,2436178.0,,1.0404694950482944,84000015.0,USA,172062.02255571124,
Idaho,US,2021-10-14 04:31:55,44.2405,-114.4788,272625,3187,,,16.0,15255.46076947397,983460.0,,1.1690050435580008,84000016.0,USA,55032.13369407381,
Illinois,US,2021-10-14 04:31:55,40.3495,-88.9861,1660883,27760,,,17.0,13106.90073668181,33337826.0,,1.6714000926013453,84000017.0,USA,263086.3078005916,
Indiana,US,2021-10-14 04:31:55,39.8494,-86.2583,991460,16140,,,18.0,14727.090725955293,13941953.0,,1.6279022855183265,84000018.0,USA,207092.98078389905,
Iowa,US,2021-10-14 04:31:55,42.0115,-93.2105,469519,6748,,,19.0,14881.413090676277,1690447.0,,1.4372155333436984,84000019.0,USA,53578.74785662442,
Kansas,US,2021-10-14 04:31:55,38.5266,-96.7265,422240,6154,,,20.0,14493.460025249597,1778583.0,,1.4574649488442593,84000020.0,USA,61050.164863794285,
Kentucky,US,2021-10-14 04:31:55,37.6681,-84.6701,719611,9210,,,21.0,16107.065132116875,7088115.0,,1.2798581455814322,84000021.0,USA,158653.39741740277,
Louisiana,US,2021-10-14 04:31:55,31.1695,-91.8678,750473,14268,,,22.0,16143.391167687792,9436924.0,,1.9012009759178543,84000022.0,USA,202997.25046969173,
Maine,US,2021-10-14 04:31:55,44.6939,-69.3819,95833,1083,,,23.0,7129.306984314974,2801151.0,,1.1300908872726514,84000023.0,USA,208386.10278735802,
Maryland,US,2021-10-14 04:31:55,39.0639,-76.8021,546552,10644,,,24.0,9040.372629712456,13452695.0,,1.9474816668862247,84000024.0,USA,222517.4835585079,
Massachusetts,US,2021-10-14 04:31:55,42.2302,-71.5301,829873,18802,,,25.0,12040.226895802583,29594301.0,,2.2656478762413044,84000025.0,USA,429369.4322657531,
Michigan,US,2021-10-14 04:31:55,43.3266,-84.5361,1209726,22864,,,26.0,12113.180352937869,16728978.0,,1.8900147636737568,84000026.0,USA,167509.93831192335,
Minnesota,US,2021-10-14 04:31:55,45.6945,-93.9002,749144,8478,,,27.0,13283.561764313701,11591419.0,,1.1316916373888064,84000027.0,USA,205535.0242710872,
Mississippi,US,2021-10-14 04:31:55,32.7416,-89.6787,496851,9900,,,28.0,16694.426253524267,2512410.0,,1.992549074068484,84000028.0,USA,84418.15245137256,
Missouri,US,2021-10-14 04:31:55,38.4561,-92.2884,842203,12285,,,29.0,13722.40945229826,7228059.0,,1.4586744525963455,84000029.0,USA,117770.16365813171,
Montana,US,2021-10-14 04:31:55,46.9219,-110.4544,162240,2109,,,30.0,15179.953180173992,1919070.0,,1.2999260355029585,84000030.0,USA,179557.40106925854,
Nebraska,US,2021-10-14 04:31:55,41.1254,-98.2681,274254,2870,,,31.0,14177.670894661309,3777646.0,,0.8864045738621862,84000031.0,USA,195286.93016157922,
Nevada,US,2021-10-14 04:31:55,38.3135,-117.0554,429555,7366,,,32.0,13945.88455909376,4394218.0,,1.7147978722165962,84000032.0,USA,142662.1898371381,
New Hampshire,US,2021-10-14 04:31:55,43.4525,-71.5639,126773,1511,,,33.0,9323.5253667875,2516579.0,,1.1918941730494663,84000033.0,USA,185081.90343389148,
New Jersey,US,2021-10-14 04:31:55,40.2989,-74.521,1175915,27653,,,34.0,13239.021007206555,15870113.0,,2.3516155504436966,84000034.0,USA,178673.4240091689,
New Mexico,US,2021-10-14 04:31:55,34.8405,-106.2485,262078,4899,,,35.0,12498.777916558765,4687940.0,,1.8692908218164053,84000035.0,USA,223572.8330731786,
New York,US,2021-10-14 04:31:55,42.1657,-74.9481,2487921,55852,,,36.0,12789.026132542007,72477231.0,,2.2449265872991946,84000036.0,USA,372565.3673381444,
North Carolina,US,2021-10-14 04:31:55,35.6301,-79.8064,1439938,17330,,,37.0,13729.27600503581,16218222.0,,1.2035240406184156,84000037.0,USA,154634.74548830846,
North Dakota,US,2021-10-14 04:31:55,47.5289,-99.78399999999999,139563,1692,,,38.0,18313.864226270307,1808424.0,,1.2123557103243696,84000038.0,USA,237306.67583477465,
Northern Mariana Islands,US,2021-10-14 04:31:55,15.0979,145.6739,282,3,,,69.0,511.38836500797913,17542.0,,1.0638297872340423,580.0,MNP,31811.25779776585,
Ohio,US,2021-10-14 04:31:55,40.3888,-82.7649,1480371,24475,,,39.0,12664.542180321838,16645160.0,,1.5550831514532506,84000039.0,USA,142398.98709053732,
Oklahoma,US,2021-10-14 04:31:55,35.5653,-96.9289,629512,9402,,,40.0,15908.936406155111,4579085.0,,1.4935378515421471,84000040.0,USA,115721.97521791287,
Oregon,US,2021-10-14 04:31:55,44.571999999999996,-122.0709,346480,4117,,,41.0,8187.897917769647,7197603.0,,1.1825889547813195,84000041.0,USA,170650.82531224686,
Pennsylvania,US,2021-10-14 04:31:55,40.5908,-77.2098,1491146,30228,,,42.0,11647.768171024049,17866523.0,,2.0271656833066647,84000042.0,USA,139560.52454036634,
Puerto Rico,US,2021-10-14 04:31:55,18.2208,-66.5901,183340,3199,,,72.0,5740.687742783122,2913773.0,,1.7448456419766554,630.0,PRI,91235.19660931824,
Rhode Island,US,2021-10-14 04:31:55,41.6809,-71.5118,175777,2857,,,44.0,16592.738452708756,5467540.0,,1.625354853024002,84000044.0,USA,516116.791159954,
South Carolina,US,2021-10-14 04:31:55,33.8569,-80.945,880984,13093,,,45.0,17110.75814271292,9149003.0,,1.4861790906531789,84000045.0,USA,177694.91566243532,
South Dakota,US,2021-10-14 04:31:55,44.2998,-99.4388,149337,2177,,,46.0,16880.74161908713,965613.0,,1.4577767063755132,84000046.0,USA,109150.87056142537,
Tennessee,US,2021-10-14 04:31:55,35.7478,-86.6923,1258933,15725,,,47.0,18434.6306010068,10095113.0,,1.2490736202800308,84000047.0,USA,147823.33851795256,
Texas,US,2021-10-14 04:31:55,31.0545,-97.5635,4162922,68245,,,48.0,14356.942629196195,33889111.0,,1.6393533196154046,84000048.0,USA,116875.60381421073,
Utah,US,2021-10-14 04:31:55,40.15,-111.8624,526401,3042,,,49.0,16419.460267414608,4325267.0,,0.577886440185334,84000049.0,USA,134913.40185991212,
Vermont,US,2021-10-14 04:31:55,44.0459,-72.7107,36352,340,,,50.0,5825.7437230464,2171280.0,,0.9352992957746479,84000050.0,USA,347967.67250704736,
Virgin Islands,US,2021-10-14 04:31:55,18.3358,-64.8963,6978,75,,,78.0,6505.20192415259,191254.0,,1.0748065348237317,850.0,VIR,178295.48420777865,
Virginia,US,2021-10-14 04:31:55,37.7693,-78.17,897978,13285,,,51.0,10520.485046076285,9569077.0,,1.4794349082048783,84000051.0,USA,112108.90632426683,
Washington,US,2021-10-14 04:31:55,47.4009,-121.4905,689484,8152,,,53.0,9054.414815808968,9842443.0,,1.1823334551635716,84000053.0,USA,129252.54497994915,
West Virginia,US,2021-10-14 04:31:55,38.4912,-80.9545,255778,3998,,,54.0,14272.155130131623,4069882.0,,1.5630742284324688,84000054.0,USA,227095.32197972602,
Wisconsin,US,2021-10-14 04:31:55,44.2685,-89.6165,847006,9124,,,55.0,14547.283833530788,11068925.0,,1.0772060646559765,84000055.0,USA,190108.20904109863,
Wyoming,US,2021-10-14 04:31:55,42.756,-107.3025,96059,1080,,,56.0,16597.409284348058,1015326.0,,1.1243090184157654,84000056.0,USA,175431.56996262693,
