Province_State,Country_Region,Last_Update,Lat,Long_,Confirmed,Deaths,Recovered,Active,FIPS,Incident_Rate,People_Tested,People_Hospitalized,Mortality_Rate,UID,ISO3,Testing_Rate,Hospitalization_Rate
Alabama,US,2020-10-26 04:30:38,32.3182,-86.9023,184723,2866,74439.0,107050.0,1.0,3759.903001824324,2201461.0,,1.5546093135526566,84000001,USA,44898.591425777326,
Alaska,US,2020-10-26 04:30:38,61.3707,-152.4044,13062,68,6946.0,5994.0,2.0,1778.1544539296967,559969.0,,0.5227552275522755,84000002,USA,76546.07713811181,
American Samoa,US,2020-10-26 04:30:38,-14.271,-170.132,0,0,,0.0,60.0,0.0,1616.0,,,16,ASM,2904.3331356373897,
Arizona,US,2020-10-26 04:30:38,33.7298,-111.4312,238163,5874,39742.0,192547.0,4.0,3272.046433457984,2681115.0,,2.4663780688016192,84000004,USA,23443.78823905367,
Arkansas,US,2020-10-26 04:30:38,34.9697,-92.3731,106115,1812,94528.0,9775.0,5.0,3516.298606536409,1288000.0,,1.7075813975404044,84000005,USA,42680.04151363045,
California,US,2020-10-26 04:30:38,36.1162,-119.6816,913113,17306,,889238.0,6.0,2294.46973914882,17787885.0,,1.91463452298488,84000006,USA,45018.689533109784,
Colorado,US,2020-10-26 04:30:38,39.0598,-105.3111,95089,2223,7513.0,85330.0,8.0,1650.8136507733639,1818196.0,,2.338375444428081,84000008,USA,31572.831260193212,
Connecticut,US,2020-10-26 04:30:38,41.5978,-72.7554,66052,4577,9800.0,51675.0,9.0,1852.6418770774976,2115744.0,,6.929388966268999,84000009,USA,59342.880390835286,
Delaware,US,2020-10-26 04:30:38,39.3185,-75.5071,23961,716,12643.0,10637.0,10.0,2460.657818526871,339341.0,,2.842118442469012,84000010,USA,34848.38215419753,
Diamond Princess,US,2020-10-26 04:30:38,,,49,0,,49.0,88888.0,,,,0.0,84088888,USA,,
District of Columbia,US,2020-10-26 04:30:38,38.8974,-77.0268,16767,642,13104.0,3021.0,11.0,2375.7738232714464,496232.0,,3.828949722669529,84000011,USA,70312.81659626865,
Florida,US,2020-10-26 04:30:38,27.7663,-81.6868,778636,16429,,762207.0,12.0,3625.3167640520037,11294653.0,,2.1099717968344645,84000012,USA,52587.723743893504,
Georgia,US,2020-10-26 04:30:38,33.0406,-83.6431,350923,7809,,343114.0,13.0,3305.1617139111822,3445032.0,,2.225274490415276,84000013,USA,32446.969476491613,
Grand Princess,US,2020-10-26 04:30:38,,,103,3,,100.0,99999.0,,,,2.9126213592233015,84099999,USA,,
Guam,US,2020-10-26 04:30:38,13.4443,144.7937,4141,69,2503.0,1569.0,66.0,2521.4791541079835,63494.0,,1.6662641873943491,316,GUM,38661.86848851299,
Hawaii,US,2020-10-26 04:30:38,21.0943,-157.4983,14672,212,11346.0,3114.0,15.0,1036.251864575329,500456.0,,1.444929116684842,84000015,USA,35346.13298377254,
Idaho,US,2020-10-26 04:30:38,44.2405,-114.4788,59344,573,27760.0,31011.0,16.0,3320.752183048742,368569.0,,0.965556753842006,84000016,USA,20624.26380685649,
Illinois,US,2020-10-26 04:30:38,40.3495,-88.9861,378958,9775,,369183.0,17.0,2990.5567637042855,7273665.0,,2.579441521223988,84000017,USA,57400.31365657706,
Indiana,US,2020-10-26 04:30:38,39.8494,-86.2583,162607,4264,113994.0,44483.0,18.0,2415.3551748687914,2711078.0,,2.5398660574268015,84000018,USA,40270.199172070905,
Iowa,US,2020-10-26 04:30:38,42.0115,-93.2105,116238,1635,87739.0,26864.0,19.0,3684.165486027252,863361.0,,1.4065968099932895,84000019,USA,27364.242314750543,
Kansas,US,2020-10-26 04:30:38,38.5266,-96.7265,80104,977,2518.0,72342.0,20.0,2602.39713261255,616262.0,,1.2609475572438535,84000020,USA,21153.298271315758,
Kentucky,US,2020-10-26 04:30:38,37.6681,-84.6701,96942,1407,17723.0,77812.0,21.0,2169.854418620163,1785186.0,,1.4513833013554496,84000021,USA,39957.84830268464,
Louisiana,US,2020-10-26 04:30:38,31.1695,-91.8678,179842,5837,165282.0,8723.0,22.0,3868.573225658096,2697507.0,,3.245626716784733,84000022,USA,58025.95253736775,
Maine,US,2020-10-26 04:30:38,44.6939,-69.3819,6199,146,5334.0,719.0,23.0,461.1623761728061,574389.0,,2.355218583642523,84000023,USA,42730.53655227003,
Maryland,US,2020-10-26 04:30:38,39.0639,-76.8021,140279,4096,8064.0,128119.0,24.0,2320.317979118974,3266149.0,,2.919895351406839,84000024,USA,54024.5100633841,
Massachusetts,US,2020-10-26 04:30:38,42.2302,-71.5301,150565,9864,122856.0,17845.0,25.0,2184.4749287740606,5668015.0,,6.551323348719822,84000025,USA,82234.49449350982,
Michigan,US,2020-10-26 04:30:38,43.3266,-84.5361,175612,7522,114939.0,53151.0,26.0,1758.4311060026193,4579991.0,,4.283306379974034,84000026,USA,45860.18403988362,
Minnesota,US,2020-10-26 04:30:38,45.6945,-93.9002,133802,2402,118485.0,12915.0,27.0,2372.530689945727,2660323.0,,1.7951899074752249,84000027,USA,47171.925402224835,
Mississippi,US,2020-10-26 04:30:38,32.7416,-89.6787,115088,3255,97675.0,14158.0,28.0,3867.010690660985,844632.0,,2.8282705408035587,84000028,USA,28380.030704107885,
Missouri,US,2020-10-26 04:30:38,38.4561,-92.2884,177752,2839,,168976.0,29.0,2799.1530002470095,2406847.0,,1.6414817574332348,84000029,USA,39215.889783146944,
Montana,US,2020-10-26 04:30:38,46.9219,-110.4544,27880,297,17832.0,9751.0,30.0,2608.586628841537,465607.0,,1.0652797704447632,84000030,USA,43564.425914455576,
Nebraska,US,2020-10-26 04:30:38,41.1254,-98.2681,63797,596,41364.0,21837.0,31.0,3298.0115880414064,567426.0,,0.9342132075175948,84000031,USA,29333.315412260494,
Nevada,US,2020-10-26 04:30:38,38.3135,-117.0554,95703,1748,2358.0,91601.0,32.0,3107.0828880095687,787869.0,,1.82230442096904,84000032,USA,25578.86678466935,
New Hampshire,US,2020-10-26 04:30:38,43.4525,-71.5639,10328,473,8823.0,1032.0,33.0,759.5731740053584,579186.0,,4.579783113865222,84000033,USA,42596.2575870902,
New Jersey,US,2020-10-26 04:30:38,40.2989,-74.521,238243,16285,36477.0,175706.0,34.0,2572.203476845237,4385882.0,,7.127912880578463,84000034,USA,49378.38528561087,
New Mexico,US,2020-10-26 04:30:38,34.8405,-106.2485,41863,967,20765.0,20131.0,35.0,1996.490891722692,1109095.0,,2.3099156773284286,84000035,USA,52893.917434373514,
New York,US,2020-10-26 04:30:38,42.1657,-74.9481,499652,33471,79092.0,382950.0,36.0,2546.9064507007224,13752123.0,,6.745596047341483,84000036,USA,70692.0599267147,
North Carolina,US,2020-10-26 04:30:38,35.6301,-79.8064,260099,4157,218541.0,37401.0,37.0,2479.9477197169667,3844453.0,,1.5982375941468439,84000037,USA,36655.43677949185,
North Dakota,US,2020-10-26 04:30:38,47.5289,-99.784,37719,456,30757.0,6506.0,38.0,4949.597276861988,784157.0,,1.2089397916169569,84000038,USA,102899.37039243526,
Northern Mariana Islands,US,2020-10-26 04:30:38,15.0979,145.6739,88,2,29.0,57.0,69.0,159.58218482518498,15811.0,,2.272727272727273,580,MNP,28672.20368489772,
Ohio,US,2020-10-26 04:30:38,40.3888,-82.7649,198115,5095,158836.0,34073.0,39.0,1694.8695793517038,4199457.0,,2.6277667011584183,84000039,USA,35926.26463970708,
Oklahoma,US,2020-10-26 04:30:38,35.5653,-96.9289,116736,1249,99541.0,15946.0,40.0,2950.1353434230373,1533760.0,,1.0699355811403508,84000040,USA,38760.961351498416,
Oregon,US,2020-10-26 04:30:38,44.572,-122.0709,42101,653,5870.0,35578.0,41.0,998.1893133687568,825250.0,,1.5510320419942518,84000041,USA,19566.179683560164,
Pennsylvania,US,2020-10-26 04:30:38,40.5908,-77.2098,198906,8648,150245.0,39821.0,42.0,1552.2041145325152,3892386.0,,4.351501914821879,84000042,USA,18936.627738080388,
Puerto Rico,US,2020-10-26 04:30:38,18.2208,-66.5901,62503,801,27348.0,34354.0,72.0,2130.7298541491673,865327.0,,1.2815384861526646,630,PRI,27094.862563539275,
Rhode Island,US,2020-10-26 04:30:38,41.6809,-71.5118,30118,1193,2602.0,26339.0,44.0,2843.0346218144714,1034572.0,,3.907962016070124,84000044,USA,97660.00447439543,
South Carolina,US,2020-10-26 04:30:38,33.8569,-80.945,170678,3802,86524.0,80352.0,45.0,3314.963697731123,1706414.0,,2.2275864493373487,84000045,USA,33142.52840612239,
South Dakota,US,2020-10-26 04:30:38,44.2998,-99.4388,39203,375,28083.0,10745.0,46.0,4431.42498974181,245930.0,,0.9565594469810984,84000046,USA,27799.411976818188,
Tennessee,US,2020-10-26 04:30:38,35.7478,-86.6923,247587,3131,218067.0,26389.0,47.0,3625.4311282740778,3546736.0,,1.2646059768889322,84000047,USA,51935.06564629925,
Texas,US,2020-10-26 04:30:38,31.0545,-97.5635,901131,18261,755095.0,118956.0,48.0,3076.319702098377,7762242.0,,2.0128788371378667,84000048,USA,26770.154009115988,
Utah,US,2020-10-26 04:30:38,40.15,-111.8624,104882,572,77145.0,27165.0,49.0,3271.4714291328833,1031511.0,,0.5453748021586163,84000049,USA,32174.81326954377,
Vermont,US,2020-10-26 04:30:38,44.0459,-72.7107,2073,58,1733.0,282.0,50.0,332.21739485792216,185607.0,,2.797877472262422,84000050,USA,29745.235893581466,
Virgin Islands,US,2020-10-26 04:30:38,18.3358,-64.8963,1346,21,1305.0,20.0,78.0,1254.80105902972,23435.0,,1.5601783060921248,850,VIR,21847.149196405262,
Virginia,US,2020-10-26 04:30:38,37.7693,-78.17,173371,3579,19520.0,149679.0,51.0,2024.176854389288,2510113.0,,2.0691770752543786,84000051,USA,29407.85440229235,
Washington,US,2020-10-26 04:30:38,47.4009,-121.4905,105665,2285,,100617.0,53.0,1351.4700731842195,2360387.0,,2.231010659489083,84000053,USA,30996.981835463746,
West Virginia,US,2020-10-26 04:30:38,38.4912,-80.9545,21907,425,16654.0,4828.0,54.0,1222.3885652237234,723207.0,,1.94001917195417,84000054,USA,40354.223174773055,
Wisconsin,US,2020-10-26 04:30:38,44.2685,-89.6165,208917,1778,155814.0,40574.0,55.0,3403.490705090002,1976943.0,,0.8972275768799896,84000055,USA,33953.89282214277,
Wyoming,US,2020-10-26 04:30:38,42.756,-107.3025,11041,68,7525.0,3448.0,56.0,1907.7025152092667,124727.0,,0.6158862421882076,84000056,USA,21550.766381170746,
