Province_State,Country_Region,Last_Update,Lat,Long_,Confirmed,Deaths,Recovered,Active,FIPS,Incident_Rate,Total_Test_Results,People_Hospitalized,Case_Fatality_Ratio,UID,ISO3,Testing_Rate,Hospitalization_Rate
Alabama,US,2020-12-02 05:30:41,32.3182,-86.9023,252900,3638,161946.0,87316.0,1.0,5157.871873078418,2722016.0,,1.4385132463424284,84000001.0,USA,55515.26201846351,
Alaska,US,2020-12-02 05:30:41,61.3707,-152.4044,33139,123,7165.0,25274.0,2.0,4450.990711439487,1018628.0,,0.3746813672798747,84000002.0,USA,139243.3821569418,
American Samoa,US,2020-12-02 05:30:41,-14.271,-170.132,0,0,,0.0,60.0,0.0,1988.0,,,16.0,ASM,3572.904872306393,
Arizona,US,2020-12-02 05:30:41,33.7298,-111.4312,337139,6687,53026.0,277426.0,4.0,4631.846519104946,3860609.0,,1.9834548954585496,84000004.0,USA,31213.110772131957,
Arkansas,US,2020-12-02 05:30:41,34.9697,-92.3731,159309,2512,140682.0,16115.0,5.0,5278.971066378068,1691453.0,,1.5768098475290158,84000005.0,USA,56049.133740958656,
California,US,2020-12-02 05:30:41,36.1162,-119.6816,1282581,19348,,1226738.0,6.0,3153.560861407368,24161313.0,,1.5492254675203565,84000006.0,USA,61148.95889304938,
Colorado,US,2020-12-02 05:30:41,39.0598,-105.3111,237310,3109,12779.0,221422.0,8.0,4120.869579713326,3255541.0,,1.3101007121486663,84000008.0,USA,56532.214708227635,
Connecticut,US,2020-12-02 05:30:41,41.5978,-72.7554,118754,5040,9800.0,103914.0,9.0,3330.8398454317985,3286210.0,,4.2440675682503315,84000009.0,USA,92172.38331724767,
Delaware,US,2020-12-02 05:30:41,39.3185,-75.5071,36343,826,17713.0,17853.0,10.0,3732.2184841501644,744188.0,,2.1379632941694413,84000010.0,USA,76423.8562937221,
Diamond Princess,US,2020-12-02 05:30:41,,,49,0,,49.0,88888.0,,,,0.0,84088888.0,USA,,
District of Columbia,US,2020-12-02 05:30:41,38.8974,-77.0268,21685,685,15914.0,5086.0,11.0,3072.622136198564,697409.0,,3.1588655752824533,84000011.0,USA,98818.27675278322,
Florida,US,2020-12-02 05:30:41,27.7663,-81.6868,1008166,18679,,989487.0,12.0,4694.004773407924,14253881.0,,1.852770277910582,84000012.0,USA,66365.8419879152,
Georgia,US,2020-12-02 05:30:41,33.0406,-83.6431,476405,9515,,466890.0,13.0,4487.011584637817,4338967.0,,1.9972502387674356,84000013.0,USA,40866.47955911712,
Grand Princess,US,2020-12-02 05:30:41,,,103,3,,100.0,99999.0,,,,2.9126213592233015,84099999.0,USA,,
Guam,US,2020-12-02 05:30:41,13.4443,144.7937,6889,112,5846.0,931.0,66.0,4194.752449323811,85038.0,,1.6257802293511394,316.0,GUM,51780.13627313081,
Hawaii,US,2020-12-02 05:30:41,21.0943,-157.4983,18266,244,11958.0,6064.0,15.0,1290.0883695701307,673164.0,,1.3358151757363408,84000015.0,USA,47544.128282782614,
Idaho,US,2020-12-02 05:30:41,44.2405,-114.4788,103305,960,40929.0,61416.0,16.0,5780.707472867523,474676.0,,0.9292870625816756,84000016.0,USA,26561.76468119514,
Illinois,US,2020-12-02 05:30:41,40.3495,-88.9861,738846,13131,,725715.0,17.0,5830.622133945863,10614079.0,,1.7772309791214949,84000017.0,USA,83761.27629959419,
Indiana,US,2020-12-02 05:30:41,39.8494,-86.2583,344373,6518,203214.0,135295.0,18.0,5115.2970513882565,4295987.0,,1.70280480757783,84000018.0,USA,63812.34775636384,
Iowa,US,2020-12-02 05:30:41,42.0115,-93.2105,233062,2449,137431.0,93182.0,19.0,7386.904252520546,1072992.0,,1.0507933511254517,84000019.0,USA,34008.50060379009,
Kansas,US,2020-12-02 05:30:41,38.5266,-96.7265,160005,1563,3403.0,155270.0,20.0,5500.025057374522,822884.0,,0.9735822208908276,84000020.0,USA,28245.633666676506,
Kentucky,US,2020-12-02 05:30:41,37.6681,-84.6701,183164,1943,28486.0,152735.0,21.0,4099.7628967026,2608252.0,,1.0607979734008866,84000021.0,USA,58380.548442108455,
Louisiana,US,2020-12-02 05:30:41,31.1695,-91.8678,237740,6455,192488.0,38797.0,22.0,5114.014516453084,3454451.0,,2.7151510052999077,84000022.0,USA,74308.54109689522,
Maine,US,2020-12-02 05:30:41,44.6939,-69.3819,11981,214,9364.0,2403.0,23.0,891.3028599655412,881709.0,,1.7861614222518993,84000023.0,USA,65593.00169913674,
Maryland,US,2020-12-02 05:30:41,39.0639,-76.8021,201135,4673,8613.0,187849.0,24.0,3326.9210411401195,4460445.0,,2.323315186317648,84000024.0,USA,73779.04553333951,
Massachusetts,US,2020-12-02 05:30:41,42.2302,-71.5301,229205,10778,155473.0,62954.0,25.0,3325.4247404752673,8460417.0,,4.702340699373923,84000025.0,USA,122748.10761779865,
Michigan,US,2020-12-02 05:30:41,43.3266,-84.5361,395453,9759,165269.0,220425.0,26.0,3959.7342787625776,6716589.0,,2.467802747734876,84000026.0,USA,67254.28230323113,
Minnesota,US,2020-12-02 05:30:41,45.6945,-93.9002,322312,3674,279540.0,39098.0,27.0,5715.1246748014755,4179928.0,,1.1398892998088808,84000027.0,USA,74117.03458665387,
Mississippi,US,2020-12-02 05:30:41,32.7416,-89.6787,154411,3836,128746.0,21829.0,28.0,5188.281903896614,1136806.0,,2.4842789697625167,84000028.0,USA,38197.21391637314,
Missouri,US,2020-12-02 05:30:41,38.4561,-92.2884,325759,4055,,305143.0,29.0,5037.43587704817,3089100.0,,1.3022004146599433,84000029.0,USA,50332.15868275767,
Montana,US,2020-12-02 05:30:41,46.9219,-110.4544,63205,698,46350.0,16157.0,30.0,5913.763194975943,660895.0,,1.1043430108377499,84000030.0,USA,61836.508610768564,
Nebraska,US,2020-12-02 05:30:41,41.1254,-98.2681,130194,1080,64485.0,64629.0,31.0,6730.431222368808,1370335.0,,0.8295313148071339,84000031.0,USA,70840.01927204602,
Nevada,US,2020-12-02 05:30:41,38.3135,-117.0554,154842,2164,,152678.0,32.0,5027.0830438458315,1653858.0,,1.397553635318583,84000032.0,USA,53693.96874703749,
New Hampshire,US,2020-12-02 05:30:41,43.4525,-71.5639,21725,528,16216.0,5058.0,33.0,1603.4289639489566,825100.0,,2.4217961654894045,84000033.0,USA,60682.01257473095,
New Jersey,US,2020-12-02 05:30:41,40.2989,-74.521,373556,17083,44013.0,280814.0,34.0,3849.3884954048494,6091102.0,,4.996344067152174,84000034.0,USA,68576.57852399015,
New Mexico,US,2020-12-02 05:30:41,34.8405,-106.2485,99419,1589,33458.0,64372.0,35.0,4741.397605622586,1579759.0,,1.5982860419034592,84000035.0,USA,75340.3830259883,
New York,US,2020-12-02 05:30:41,42.1657,-74.9481,663500,34513,85808.0,534795.0,36.0,3368.3550276476367,19568173.0,,5.2897682616956505,84000036.0,USA,100589.15691579552,
North Carolina,US,2020-12-02 05:30:41,35.6301,-79.8064,367395,5284,315979.0,46132.0,37.0,3502.9753766274184,5344037.0,,1.4382340532669198,84000037.0,USA,50953.415323523346,
North Dakota,US,2020-12-02 05:30:41,47.5289,-99.784,79655,960,73015.0,5680.0,38.0,10452.561602599264,1091144.0,,1.205197413847216,84000038.0,USA,143183.10058761624,
Northern Mariana Islands,US,2020-12-02 05:30:41,15.0979,145.6739,106,2,29.0,75.0,69.0,192.22399535760917,17116.0,,1.8867924528301887,580.0,MNP,31038.73494849848,
Ohio,US,2020-12-02 05:30:41,40.3888,-82.7649,430093,8241,280716.0,142829.0,39.0,3679.4363980118233,6182931.0,,1.5224614211344991,84000039.0,USA,52894.84220342028,
Oklahoma,US,2020-12-02 05:30:41,35.5653,-96.9289,199482,1758,167406.0,30318.0,40.0,5041.280312643181,2122950.0,,0.8812825217312841,84000040.0,USA,53650.88599335199,
Oregon,US,2020-12-02 05:30:41,44.572,-122.0709,76654,936,5870.0,69848.0,41.0,1817.420099925624,1042082.0,,1.221071307433402,84000041.0,USA,24707.135603760973,
Pennsylvania,US,2020-12-02 05:30:41,40.5908,-77.2098,373016,10529,220284.0,141742.0,42.0,2909.9384478458783,5744694.0,,2.819638686817169,84000042.0,USA,25024.11929896206,
Puerto Rico,US,2020-12-02 05:30:41,18.2208,-66.5901,53320,1122,43987.0,8211.0,72.0,1669.540037336075,1150822.0,,2.104276069017254,630.0,PRI,36034.197390232126,
Rhode Island,US,2020-12-02 05:30:41,41.6809,-71.5118,57906,1428,3777.0,52749.0,44.0,5466.125334045712,1561914.0,,2.3831727282146926,84000044.0,USA,147439.25819432654,
South Carolina,US,2020-12-02 05:30:41,33.8569,-80.945,218912,4404,115152.0,99356.0,45.0,4251.780153257687,2417026.0,,2.011767285484578,84000045.0,USA,46944.266082753864,
South Dakota,US,2020-12-02 05:30:41,44.2998,-99.4388,80912,948,65876.0,14088.0,46.0,9146.122969415335,330533.0,,1.171643266758948,84000046.0,USA,37362.757853591036,
Tennessee,US,2020-12-02 05:30:41,35.7478,-86.6923,380186,4638,336131.0,39417.0,47.0,5567.086151268074,4582233.0,,1.2199291925531188,84000047.0,USA,67097.9096447096,
Texas,US,2020-12-02 05:30:41,31.0545,-97.5635,1306735,22473,976517.0,252303.0,48.0,4314.178279321811,10777898.0,,1.7677991005120974,84000048.0,USA,37170.44500217117,
Utah,US,2020-12-02 05:30:41,40.15,-111.8624,198216,890,136709.0,60617.0,49.0,6182.73851372975,1835594.0,,0.4490051257214352,84000049.0,USA,57255.7095258266,
Vermont,US,2020-12-02 05:30:41,44.0459,-72.7107,4239,72,2564.0,1603.0,50.0,679.3388986023792,555633.0,,1.6985138004246283,84000050.0,USA,89045.31970916154,
Virgin Islands,US,2020-12-02 05:30:41,18.3358,-64.8963,1550,23,1493.0,34.0,78.0,1444.9789312749374,28578.0,,1.4838709677419355,850.0,VIR,26641.682514822685,
Virginia,US,2020-12-02 05:30:41,37.7693,-78.17,240063,4093,24393.0,211577.0,51.0,2812.517903129265,3341426.0,,1.7049691122746946,84000051.0,USA,39147.30902713708,
Washington,US,2020-12-02 05:30:41,47.4009,-121.4905,175033,2783,,164411.0,53.0,2195.907414588754,2894367.0,,1.677471055401397,84000053.0,USA,38009.29310497206,
West Virginia,US,2020-12-02 05:30:41,38.4912,-80.9545,48818,758,31139.0,16921.0,54.0,2723.995297260772,1149027.0,,1.552705969109755,84000054.0,USA,64114.550871105996,
Wisconsin,US,2020-12-02 05:30:41,44.2685,-89.6165,416365,3611,319426.0,93328.0,55.0,7151.047139392221,4453101.0,,0.8672679019610198,84000055.0,USA,76481.77720863817,
Wyoming,US,2020-12-02 05:30:41,42.756,-107.3025,33805,239,26003.0,7563.0,56.0,5840.945885938707,419587.0,,0.706996006507913,84000056.0,USA,72497.70629916771,
